<?xml version="1.0" encoding="UTF-8" standalone="no"?>
<!-- Created with Inkscape (http://www.inkscape.org/) -->

<svg
   xmlns:dc="http://purl.org/dc/elements/1.1/"
   xmlns:cc="http://creativecommons.org/ns#"
   xmlns:rdf="http://www.w3.org/1999/02/22-rdf-syntax-ns#"
   xmlns:svg="http://www.w3.org/2000/svg"
   xmlns="http://www.w3.org/2000/svg"
   xmlns:sodipodi="http://sodipodi.sourceforge.net/DTD/sodipodi-0.dtd"
   xmlns:inkscape="http://www.inkscape.org/namespaces/inkscape"
   width="300"
   height="200"
   viewBox="0 0 84.666665 56.444442"
   version="1.1"
   id="svg5169"
   inkscape:version="0.91 r13725"
   sodipodi:docname="mapo300x200.svg">
  <defs
     id="defs5163" />
  <sodipodi:namedview
     id="base"
     pagecolor="#ffffff"
     bordercolor="#666666"
     borderopacity="1.0"
     inkscape:pageopacity="0.0"
     inkscape:pageshadow="2"
     inkscape:zoom="1.6299364"
     inkscape:cx="175.50413"
     inkscape:cy="121.53094"
     inkscape:document-units="mm"
     inkscape:current-layer="layer1"
     showgrid="false"
     units="px"
     inkscape:window-width="1366"
     inkscape:window-height="714"
     inkscape:window-x="0"
     inkscape:window-y="25"
     inkscape:window-maximized="1" />
  <metadata
     id="metadata5166">
    <rdf:RDF>
      <cc:Work
         rdf:about="">
        <dc:format>image/svg+xml</dc:format>
        <dc:type
           rdf:resource="http://purl.org/dc/dcmitype/StillImage" />
        <dc:title></dc:title>
      </cc:Work>
    </rdf:RDF>
  </metadata>
  <g
     inkscape:label="Capa 1"
     inkscape:groupmode="layer"
     id="layer1"
     transform="translate(0,-240.55559)">
    <g
       id="g9670"
       transform="matrix(2.7864677,0,0,2.7864677,-252.89127,-149.84792)">
      <path
         id="path5766"
         d="m 97.306163,159.17038 c -0.11314,0 -0.22411,-0.0332 -0.32014,-0.0983 -0.15663,-0.10639 -0.25153,-0.28356 -0.25153,-0.47334 l 0,-10.29001 c 0,-0.23439 0.14292,-0.44361 0.35901,-0.53051 l 5.716677,-2.28666 c 0.13605,-0.0549 0.28811,-0.0549 0.42416,0 l 3.4323,1.37314 c 0.29384,0.11774 0.4356,0.45047 0.31785,0.74317 -0.11775,0.29269 -0.45048,0.43561 -0.74203,0.31899 l -3.21963,-1.28854 -5.144997,2.05685 0,9.05864 4.932347,-1.97339 c 0.13605,-0.056 0.28811,-0.056 0.42416,0 l 5.50402,2.20207 5.145,-2.05915 0,-6.47128 c 0.001,-0.31556 0.25725,-0.57166 0.57281,-0.57166 0.31556,0 0.57166,0.2561 0.57166,0.57166 l 0,6.86001 c 0,0.23324 -0.14176,0.44476 -0.35899,0.53051 l -5.71667,2.28666 c -0.13608,0.056 -0.28814,0.056 -0.42419,0 l -5.50515,-2.20205 -5.504017,2.20205 c -0.0687,0.0275 -0.14062,0.0412 -0.21265,0.0412 z"
         inkscape:connector-curvature="0"
         style="fill:#000000;fill-opacity:1;stroke:none;stroke-width:0.34299999;stroke-miterlimit:4;stroke-dasharray:none;stroke-opacity:1" />
      <path
         id="path5768"
         d="m 103.02283,156.8837 c -0.31556,0 -0.57167,-0.2561 -0.57167,-0.57165 l 0,-10.29001 c 0,-0.31558 0.25611,-0.57168 0.57167,-0.57168 0.31555,0 0.57167,0.2561 0.57167,0.57168 l 0,10.29001 c 0,0.31555 -0.25612,0.57165 -0.57167,0.57165 z"
         inkscape:connector-curvature="0"
         style="fill:#000000;fill-opacity:1;stroke-width:1.14333439" />
      <path
         id="path5770"
         d="m 108.7395,159.17038 c -0.31556,0 -0.57167,-0.25611 -0.57167,-0.57167 l 0,-6.86 c 0,-0.31557 0.25611,-0.57168 0.57167,-0.57168 0.31556,0 0.57166,0.25611 0.57166,0.57168 l 0,6.86 c 0,0.31556 -0.2561,0.57167 -0.57166,0.57167 z"
         inkscape:connector-curvature="0"
         style="fill:#000000;fill-opacity:1;stroke-width:1.14333439" />
      <path
         sodipodi:nodetypes="scssscs"
         inkscape:connector-curvature="0"
         d="m 111.02616,151.16703 c -0.16234,0 -0.31669,-0.0697 -0.42531,-0.18979 -0.36586,-0.40703 -3.57635,-4.04397 -3.57635,-6.09854 0,-2.20664 1.79503,-4.00168 4.00166,-4.00168 2.20664,0 4.00167,1.79504 4.00167,4.00168 0,2.05457 -3.21047,5.69151 -3.57633,6.09854 -0.10864,0.12006 -0.26298,0.18979 -0.42534,0.18979 z"
         id="path5772"
         style="fill:#d40000;fill-opacity:1;stroke-width:1.14333439" />
      <circle
         style="opacity:1;fill:#ffffff;fill-opacity:1;stroke:none;stroke-width:0.81175494;stroke-linecap:round;stroke-linejoin:round;stroke-miterlimit:4;stroke-dasharray:none;stroke-dashoffset:0;stroke-opacity:1"
         id="circle5774"
         cx="111.04271"
         cy="144.74771"
         r="2.0799272" />
      <path
         sodipodi:nodetypes="ccccccccccccccccccccc"
         inkscape:connector-curvature="0"
         d="m 112.47879,144.443 c 0.0463,-0.0454 0.03,-0.0904 -0.03,-0.0994 l -0.82848,-0.12045 c -0.0643,-0.009 -0.14102,-0.0647 -0.16931,-0.12302 l -0.37121,-0.7515 c -0.03,-0.0583 -0.0763,-0.0583 -0.10501,0 l -0.37078,0.75086 c -0.03,0.0583 -0.10502,0.11359 -0.16974,0.12302 l -0.82848,0.1213 c -0.0639,0.009 -0.0789,0.054 -0.03,0.0994 l 0.59894,0.58415 c 0.0467,0.0454 0.0754,0.13545 0.0647,0.19932 l -0.14103,0.82527 c -0.0128,0.0647 0.0257,0.0917 0.0845,0.0617 l 0.74129,-0.39049 c 0.0579,-0.03 0.1526,-0.03 0.21047,0 l 0.74065,0.39049 c 0.0583,0.03 0.096,0.003 0.0853,-0.0617 l -0.14188,-0.82527 c -0.0129,-0.0643 0.0171,-0.15474 0.0647,-0.19932 z"
         id="path5840"
         style="fill:#000000;fill-opacity:1;stroke-width:0.06412388" />
    </g>
  </g>
</svg>
