<?xml version="1.0" encoding="UTF-8" standalone="no"?>
<!-- Created with Inkscape (http://www.inkscape.org/) -->

<svg
   xmlns:dc="http://purl.org/dc/elements/1.1/"
   xmlns:cc="http://creativecommons.org/ns#"
   xmlns:rdf="http://www.w3.org/1999/02/22-rdf-syntax-ns#"
   xmlns:svg="http://www.w3.org/2000/svg"
   xmlns="http://www.w3.org/2000/svg"
   xmlns:sodipodi="http://sodipodi.sourceforge.net/DTD/sodipodi-0.dtd"
   xmlns:inkscape="http://www.inkscape.org/namespaces/inkscape"
   width="49.999996"
   height="49.999996"
   viewBox="0 0 13.229166 13.229166"
   version="1.1"
   id="svg16055"
   sodipodi:docname="activism_white.svg"
   inkscape:version="0.92.2pre0 650254f, 2017-08-06">
  <defs
     id="defs16049" />
  <sodipodi:namedview
     id="base"
     pagecolor="#ffffff"
     bordercolor="#666666"
     borderopacity="1.0"
     inkscape:pageopacity="0.0"
     inkscape:pageshadow="2"
     inkscape:zoom="0.98994949"
     inkscape:cx="-190.3118"
     inkscape:cy="-65.705954"
     inkscape:document-units="mm"
     inkscape:current-layer="layer1"
     showgrid="false"
     fit-margin-top="0"
     fit-margin-left="0"
     fit-margin-right="0"
     fit-margin-bottom="0"
     units="px"
     inkscape:window-width="1164"
     inkscape:window-height="862"
     inkscape:window-x="38"
     inkscape:window-y="65"
     inkscape:window-maximized="0" />
  <metadata
     id="metadata16052">
    <rdf:RDF>
      <cc:Work
         rdf:about="">
        <dc:format>image/svg+xml</dc:format>
        <dc:type
           rdf:resource="http://purl.org/dc/dcmitype/StillImage" />
        <dc:title></dc:title>
      </cc:Work>
    </rdf:RDF>
  </metadata>
  <g
     inkscape:label="Capa 1"
     inkscape:groupmode="layer"
     id="layer1"
     transform="translate(-68.224704,-158.8497)">
    <g
       id="g10897"
       transform="translate(223.89324,446.00854)"
       style="display:inline;fill:#ffffff">
      <g
         id="g10895"
         data-name="Group"
         transform="matrix(0.11736214,0,0,0.11736214,-154.91619,-286.41236)"
         style="fill:#ffffff">
        <path
           id="path10893"
           d="m 77.4,14.5 v 5.8 l -57,15.1 h -7.2 a 8,8 0 0 0 -8,8 v 13.2 a 8,8 0 0 0 8,8 h 7.1 l 2.3,0.6 v 8.6 a 8,8 0 0 0 8,8 h 18 a 8,8 0 0 0 8,-7.6 l 20.7,5.5 v 5.8 h 4 V 63.6 h 3.4 a 10,10 0 0 0 10,-10 v -7.2 a 10,10 0 0 0 -10,-10 H 81.4 V 14.5 Z M 9.2,56.6 V 43.4 a 4,4 0 0 1 4,-4 h 5.4 v 21.2 h -5.4 a 4,4 0 0 1 -4,-4 z m 43.4,17.2 a 4,4 0 0 1 -4,4 h -18 a 4,4 0 0 1 -4,-4 v -7.5 l 26,6.9 z M 22.6,61 V 38.9 L 77.4,24.4 V 75.6 Z M 84.8,40.4 a 6,6 0 0 1 6,6 v 7.2 a 6,6 0 0 1 -6,6 H 81.4 V 40.4 Z"
           data-name="Compound Path"
           inkscape:connector-curvature="0"
           style="fill:#ffffff" />
      </g>
    </g>
  </g>
</svg>
