<?xml version="1.0" encoding="UTF-8" standalone="no"?>
<!-- Created with Inkscape (http://www.inkscape.org/) -->

<svg
   xmlns:dc="http://purl.org/dc/elements/1.1/"
   xmlns:cc="http://creativecommons.org/ns#"
   xmlns:rdf="http://www.w3.org/1999/02/22-rdf-syntax-ns#"
   xmlns:svg="http://www.w3.org/2000/svg"
   xmlns="http://www.w3.org/2000/svg"
   xmlns:sodipodi="http://sodipodi.sourceforge.net/DTD/sodipodi-0.dtd"
   xmlns:inkscape="http://www.inkscape.org/namespaces/inkscape"
   width="49.999996"
   height="49.999996"
   viewBox="0 0 13.229166 13.229166"
   version="1.1"
   id="svg16055"
   sodipodi:docname="advising_black.svg"
   inkscape:version="0.92.2pre0 650254f, 2017-08-06">
  <defs
     id="defs16049" />
  <sodipodi:namedview
     id="base"
     pagecolor="#ffffff"
     bordercolor="#666666"
     borderopacity="1.0"
     inkscape:pageopacity="0.0"
     inkscape:pageshadow="2"
     inkscape:zoom="0.98994949"
     inkscape:cx="-187.00488"
     inkscape:cy="-65.705954"
     inkscape:document-units="mm"
     inkscape:current-layer="layer1"
     showgrid="false"
     fit-margin-top="0"
     fit-margin-left="0"
     fit-margin-right="0"
     fit-margin-bottom="0"
     units="px"
     inkscape:window-width="1164"
     inkscape:window-height="862"
     inkscape:window-x="38"
     inkscape:window-y="65"
     inkscape:window-maximized="0" />
  <metadata
     id="metadata16052">
    <rdf:RDF>
      <cc:Work
         rdf:about="">
        <dc:format>image/svg+xml</dc:format>
        <dc:type
           rdf:resource="http://purl.org/dc/dcmitype/StillImage" />
        <dc:title></dc:title>
      </cc:Work>
    </rdf:RDF>
  </metadata>
  <g
     inkscape:label="Capa 1"
     inkscape:groupmode="layer"
     id="layer1"
     transform="translate(-68.224704,-158.8497)">
    <g
       style="display:inline"
       transform="matrix(0.13374542,0,0,0.13374542,70.425688,161.2513)"
       id="g48">
      <path
         inkscape:connector-curvature="0"
         d="M 64.5,58.5 H 62 v -57 c 0,-0.6 -0.4,-1 -1,-1 H 42.3 23.7 5 c -0.6,0 -1,0.4 -1,1 v 57 H 1.5 c -0.6,0 -1,0.4 -1,1 v 2 c 0,0.6 0.4,1 1,1 h 63 c 0.6,0 1,-0.4 1,-1 v -2 c 0,-0.6 -0.4,-1 -1,-1 z m -4.5,0 H 43.3 V 2.5 H 60 Z m -18.7,0 H 24.7 v -56 h 16.7 v 56 z M 6,2.5 h 16.7 v 56 H 6 Z m 57.5,58 h -61 v 0 z"
         id="path34"
         sodipodi:nodetypes="scssccsscssssssssccccccccccccccccccccc"
         style="stroke:#000000;stroke-opacity:1" />
      <path
         inkscape:connector-curvature="0"
         d="M 19.2,6.4 H 9.4 c -0.6,0 -1,0.4 -1,1 v 27.5 c 0,0.6 0.4,1 1,1 h 9.8 c 0.6,0 1,-0.4 1,-1 V 7.4 c 0,-0.6 -0.4,-1 -1,-1 z m -8.8,7.7 h 7.8 v 14.1 h -7.8 z m 7.8,-5.7 v 3.7 H 10.4 V 8.4 Z m -7.8,25.5 v -3.7 h 7.8 v 3.7 z"
         id="path36-9" />
      <path
         inkscape:connector-curvature="0"
         d="m 14.3,44.6 c -2.8,0 -5,2.2 -5,5 0,2.8 2.2,5 5,5 2.8,0 5,-2.2 5,-5 0,-2.7 -2.2,-5 -5,-5 z m 0,8 c -1.7,0 -3,-1.3 -3,-3 0,-1.7 1.3,-3 3,-3 1.7,0 3,1.3 3,3 0,1.7 -1.3,3 -3,3 z"
         id="path38-2" />
      <path
         inkscape:connector-curvature="0"
         d="m 28.1,35.9 h 9.8 c 0.6,0 1,-0.4 1,-1 V 7.4 c 0,-0.6 -0.4,-1 -1,-1 h -9.8 c -0.6,0 -1,0.4 -1,1 v 27.5 c 0,0.6 0.4,1 1,1 z m 8.8,-7.7 H 29.1 V 14.1 h 7.8 z m -7.8,5.7 v -3.7 h 7.8 v 3.7 z M 36.9,8.4 v 3.7 H 29.1 V 8.4 Z"
         id="path40" />
      <path
         inkscape:connector-curvature="0"
         d="m 33,44.6 c -2.8,0 -5,2.2 -5,5 0,2.8 2.2,5 5,5 2.8,0 5,-2.2 5,-5 0,-2.7 -2.2,-5 -5,-5 z m 0,8 c -1.7,0 -3,-1.3 -3,-3 0,-1.7 1.3,-3 3,-3 1.7,0 3,1.3 3,3 0,1.7 -1.3,3 -3,3 z"
         id="path42-2" />
      <path
         inkscape:connector-curvature="0"
         d="m 46.8,35.9 h 9.8 c 0.6,0 1,-0.4 1,-1 V 7.4 c 0,-0.6 -0.4,-1 -1,-1 h -9.8 c -0.6,0 -1,0.4 -1,1 v 27.5 c 0,0.6 0.4,1 1,1 z m 8.8,-7.7 H 47.8 V 14.1 h 7.8 z m -7.8,5.7 v -3.7 h 7.8 v 3.7 z M 55.6,8.4 v 3.7 H 47.8 V 8.4 Z"
         id="path44-3" />
      <path
         inkscape:connector-curvature="0"
         d="m 51.7,44.6 c -2.8,0 -5,2.2 -5,5 0,2.8 2.2,5 5,5 2.8,0 5,-2.2 5,-5 0,-2.7 -2.3,-5 -5,-5 z m 0,8 c -1.7,0 -3,-1.3 -3,-3 0,-1.7 1.3,-3 3,-3 1.7,0 3,1.3 3,3 0,1.7 -1.4,3 -3,3 z"
         id="path46-18" />
    </g>
  </g>
</svg>
