<?xml version="1.0" encoding="UTF-8" standalone="no"?>
<!-- Created with Inkscape (http://www.inkscape.org/) -->

<svg
   xmlns:dc="http://purl.org/dc/elements/1.1/"
   xmlns:cc="http://creativecommons.org/ns#"
   xmlns:rdf="http://www.w3.org/1999/02/22-rdf-syntax-ns#"
   xmlns:svg="http://www.w3.org/2000/svg"
   xmlns="http://www.w3.org/2000/svg"
   xmlns:sodipodi="http://sodipodi.sourceforge.net/DTD/sodipodi-0.dtd"
   xmlns:inkscape="http://www.inkscape.org/namespaces/inkscape"
   width="49.999996"
   height="49.999996"
   viewBox="0 0 13.229166 13.229166"
   version="1.1"
   id="svg16055"
   sodipodi:docname="apartment_black.svg"
   inkscape:version="0.92.2pre0 650254f, 2017-08-06">
  <defs
     id="defs16049" />
  <sodipodi:namedview
     id="base"
     pagecolor="#ffffff"
     bordercolor="#666666"
     borderopacity="1.0"
     inkscape:pageopacity="0.0"
     inkscape:pageshadow="2"
     inkscape:zoom="0.98994949"
     inkscape:cx="-227.41099"
     inkscape:cy="-186.92426"
     inkscape:document-units="mm"
     inkscape:current-layer="layer1"
     showgrid="false"
     fit-margin-top="0"
     fit-margin-left="0"
     fit-margin-right="0"
     fit-margin-bottom="0"
     units="px"
     inkscape:window-width="1164"
     inkscape:window-height="862"
     inkscape:window-x="62"
     inkscape:window-y="274"
     inkscape:window-maximized="0" />
  <metadata
     id="metadata16052">
    <rdf:RDF>
      <cc:Work
         rdf:about="">
        <dc:format>image/svg+xml</dc:format>
        <dc:type
           rdf:resource="http://purl.org/dc/dcmitype/StillImage" />
        <dc:title></dc:title>
      </cc:Work>
    </rdf:RDF>
  </metadata>
  <g
     inkscape:label="Capa 1"
     inkscape:groupmode="layer"
     id="layer1"
     transform="translate(-68.224704,-158.8497)">
    <g
       style="display:inline"
       id="g10522"
       transform="translate(-181.59755,160.13807)">
      <g
         transform="matrix(0.37835906,0,0,0.37835906,247.50378,-4.1024918)"
         style="fill:currentColor;fill-rule:evenodd"
         id="g10">
        <path
           inkscape:connector-curvature="0"
           d="M 29.715,32.927 H 24.878 V 31.66 h 4.837 c 0.13,0 0.236,-0.107 0.236,-0.24 V 13.506 c 0,-0.13 -0.105,-0.237 -0.235,-0.237 H 17.268 V 32.294 H 16 V 12 h 13.715 c 0.83,0 1.505,0.675 1.505,1.505 v 17.917 c 0,0.83 -0.675,1.505 -1.505,1.505 z"
           id="path4" />
        <path
           inkscape:connector-curvature="0"
           d="m 24.628,37.84 c -0.155,0 -0.306,-0.042 -0.44,-0.124 L 16.395,32.891 C 16.147,32.738 16,32.473 16,32.181 V 12.995 c 0,-0.46 0.375,-0.835 0.835,-0.835 0.154,0 0.306,0.042 0.438,0.125 l 7.795,4.824 c 0.248,0.15 0.396,0.417 0.396,0.71 v 19.186 c 0,0.46 -0.375,0.835 -0.836,0.835 z m -7.36,-5.9 6.928,4.288 V 18.06 l -6.928,-4.288 z"
           id="path6" />
        <path
           inkscape:connector-curvature="0"
           d="m 22.34,24.683 h 1.27 v 2.537 h -1.27 z"
           id="path8" />
      </g>
    </g>
  </g>
</svg>
