<?xml version="1.0" encoding="UTF-8" standalone="no"?>
<!-- Created with Inkscape (http://www.inkscape.org/) -->

<svg
   xmlns:dc="http://purl.org/dc/elements/1.1/"
   xmlns:cc="http://creativecommons.org/ns#"
   xmlns:rdf="http://www.w3.org/1999/02/22-rdf-syntax-ns#"
   xmlns:svg="http://www.w3.org/2000/svg"
   xmlns="http://www.w3.org/2000/svg"
   xmlns:sodipodi="http://sodipodi.sourceforge.net/DTD/sodipodi-0.dtd"
   xmlns:inkscape="http://www.inkscape.org/namespaces/inkscape"
   width="49.999996"
   height="49.999996"
   viewBox="0 0 13.229166 13.229166"
   version="1.1"
   id="svg16055"
   sodipodi:docname="architecture_black.svg"
   inkscape:version="0.92.2pre0 650254f, 2017-08-06">
  <defs
     id="defs16049" />
  <sodipodi:namedview
     id="base"
     pagecolor="#ffffff"
     bordercolor="#666666"
     borderopacity="1.0"
     inkscape:pageopacity="0.0"
     inkscape:pageshadow="2"
     inkscape:zoom="0.98994949"
     inkscape:cx="-187.00488"
     inkscape:cy="-65.705954"
     inkscape:document-units="mm"
     inkscape:current-layer="layer1"
     showgrid="false"
     fit-margin-top="0"
     fit-margin-left="0"
     fit-margin-right="0"
     fit-margin-bottom="0"
     units="px"
     inkscape:window-width="1164"
     inkscape:window-height="862"
     inkscape:window-x="38"
     inkscape:window-y="65"
     inkscape:window-maximized="0" />
  <metadata
     id="metadata16052">
    <rdf:RDF>
      <cc:Work
         rdf:about="">
        <dc:format>image/svg+xml</dc:format>
        <dc:type
           rdf:resource="http://purl.org/dc/dcmitype/StillImage" />
        <dc:title></dc:title>
      </cc:Work>
    </rdf:RDF>
  </metadata>
  <g
     inkscape:label="Capa 1"
     inkscape:groupmode="layer"
     id="layer1"
     transform="translate(-68.224704,-158.8497)">
    <g
       style="display:inline"
       transform="matrix(0.14172556,0,0,0.14172556,70.304069,160.92906)"
       id="g66">
      <path
         inkscape:connector-curvature="0"
         d="M 60,55 H 57 V 24.558 C 57.573,24.842 58.203,25 58.845,25 61.136,25 63,23.136 63,20.808 63,19.339 62.213,17.966 60.946,17.224 L 33.271,1 H 30.723 L 20,7.434 V 8 H 19.741 L 10,13.412 V 14 H 9.713 L 1,19.446 V 26 H 3.257 L 5,25.039 V 55 H 4 c -1.654,0 -3,1.346 -3,3 v 2 c 0,1.654 1.346,3 3,3 h 56 c 1.654,0 3,-1.346 3,-3 v -2 c 0,-1.654 -1.346,-3 -3,-3 z M 33,55 V 10.731 L 55,23.423 V 55 Z M 7,25 H 31 V 37 H 16 v 2 h 2 v 4 h -6 v -4 h 2 V 37 H 7 Z M 31,10.694 V 23 H 8.695 Z M 24,49 v -4 h 7 v 4 z m -8,0 v -4 h 6 v 4 z M 26,39 v 4 h -6 v -4 z m 5,4 h -3 v -4 h 3 z M 7,39 h 3 v 4 H 7 Z m 0,6 h 7 v 4 H 7 Z m 11,6 v 4 h -6 v -4 z m 2,0 h 6 v 4 h -6 z m 8,0 h 3 v 4 H 28 Z M 59.935,18.949 C 60.592,19.333 61,20.046 61,20.845 61,22.033 60.033,23 58.845,23 58.468,23 58.095,22.9 57.768,22.711 L 33,8.423 V 3.159 Z M 31,3.166 V 8.41 l -9,4.965 V 8.566 Z m -11,6.978 v 4.335 l -8,4.414 V 14.589 Z M 3,23.858 v -3.304 l 7,-4.375 v 3.817 z M 7,51 h 3 v 4 H 7 Z m 54,9 c 0,0.551 -0.449,1 -1,1 H 4 C 3.449,61 3,60.551 3,60 v -2 c 0,-0.551 0.449,-1 1,-1 h 56 c 0.551,0 1,0.449 1,1 z"
         id="path62"
         style="stroke:#000000;stroke-opacity:1" />
      <path
         inkscape:connector-curvature="0"
         d="M 35,29 V 45 H 53 V 29 Z m 16,7 h -6 v -5 h 6 z m -8,-5 v 5 h -6 v -5 z m -6,7 h 6 v 5 h -6 z m 8,5 v -5 h 6 v 5 z"
         id="path64" />
    </g>
  </g>
</svg>
