<?xml version="1.0" encoding="UTF-8" standalone="no"?>
<!-- Created with Inkscape (http://www.inkscape.org/) -->

<svg
   xmlns:dc="http://purl.org/dc/elements/1.1/"
   xmlns:cc="http://creativecommons.org/ns#"
   xmlns:rdf="http://www.w3.org/1999/02/22-rdf-syntax-ns#"
   xmlns:svg="http://www.w3.org/2000/svg"
   xmlns="http://www.w3.org/2000/svg"
   xmlns:sodipodi="http://sodipodi.sourceforge.net/DTD/sodipodi-0.dtd"
   xmlns:inkscape="http://www.inkscape.org/namespaces/inkscape"
   width="49.999996"
   height="49.999996"
   viewBox="0 0 13.229166 13.229166"
   version="1.1"
   id="svg16055"
   sodipodi:docname="clothes_black.svg"
   inkscape:version="0.92.2pre0 650254f, 2017-08-06">
  <defs
     id="defs16049" />
  <sodipodi:namedview
     id="base"
     pagecolor="#ffffff"
     bordercolor="#666666"
     borderopacity="1.0"
     inkscape:pageopacity="0.0"
     inkscape:pageshadow="2"
     inkscape:zoom="0.98994949"
     inkscape:cx="-227.41099"
     inkscape:cy="-186.92426"
     inkscape:document-units="mm"
     inkscape:current-layer="layer1"
     showgrid="false"
     fit-margin-top="0"
     fit-margin-left="0"
     fit-margin-right="0"
     fit-margin-bottom="0"
     units="px"
     inkscape:window-width="1164"
     inkscape:window-height="862"
     inkscape:window-x="62"
     inkscape:window-y="274"
     inkscape:window-maximized="0" />
  <metadata
     id="metadata16052">
    <rdf:RDF>
      <cc:Work
         rdf:about="">
        <dc:format>image/svg+xml</dc:format>
        <dc:type
           rdf:resource="http://purl.org/dc/dcmitype/StillImage" />
        <dc:title></dc:title>
      </cc:Work>
    </rdf:RDF>
  </metadata>
  <g
     inkscape:label="Capa 1"
     inkscape:groupmode="layer"
     id="layer1"
     transform="translate(-68.224704,-158.8497)">
    <path
       inkscape:connector-curvature="0"
       d="m 78.739023,164.34754 h -2.327898 v -1.25083 l 0.704269,0.3582 c 0.120285,0.0611 0.268778,0.0128 0.330781,-0.10799 l 0.635212,-1.2406 c 0.06131,-0.11935 0.01567,-0.26858 -0.101771,-0.33264 0,-5e-5 -9.7e-5,-5e-5 -9.7e-5,-1e-4 l -1.625597,-0.88425 c -0.02204,-0.012 -0.04682,-0.0183 -0.07189,-0.0183 h -9.9e-5 l -0.999982,7.6e-4 c -0.07415,5e-5 -0.13723,0.0541 -0.148592,0.12744 -0.09056,0.58486 -0.488383,1.00933 -0.945962,1.00933 -0.457137,0 -0.854916,-0.42398 -0.945864,-1.00816 -0.01141,-0.0733 -0.07449,-0.12729 -0.148642,-0.12729 h -9.7e-5 l -1.000031,7.6e-4 c -0.02503,0 -0.04966,0.006 -0.07165,0.0182 l -1.625547,0.8818 c -0.117737,0.0639 -0.163627,0.21319 -0.102261,0.33264 l 0.635261,1.24065 c 0.0618,0.12092 0.210252,0.16941 0.330831,0.10799 l 0.704169,-0.3581 v 3.14432 c 0,0.13703 0.110784,0.2485 0.246935,0.2485 h 1.960245 v 1.86517 c -0.0015,8e-5 -0.0031,3.7e-4 -0.0046,3.7e-4 -0.0088,-0.001 -0.01771,-0.003 -0.02694,-0.003 h -1.170858 -1.099746 c -0.248893,0 -0.451358,0.20246 -0.451358,0.45136 v 0.3009 c 0,0.52541 0.427459,0.95287 0.952868,0.95287 h 0.09673 c 0.52541,0 0.952869,-0.42746 0.952869,-0.95287 v -0.3009 c 0,-0.053 -0.01087,-0.10317 -0.02773,-0.15046 h 0.377371 c -0.01686,0.0473 -0.02773,0.0974 -0.02773,0.15046 v 0.3009 c 0,0.52541 0.427459,0.95287 0.952869,0.95287 h 0.09668 c 0.361378,0 0.676401,-0.20224 0.837886,-0.49945 h 0.77145 c 0.142715,0 0.25134,-0.11627 0.258787,-0.25879 l 0.124079,-2.37476 c 0,0 0.139802,1.81085 0.139802,2.37476 0,0.14271 0.116072,0.25879 0.258689,0.25879 h 1.97097 c 0.142715,0 0.271319,-0.11663 0.258786,-0.25879 l -0.413781,-4.69312 c -0.01253,-0.14212 -0.116073,-0.25874 -0.258788,-0.25874 z m -5.62028,4.75724 c 0,0.35948 -0.292481,0.65196 -0.651962,0.65196 h -0.09673 c -0.35948,0 -0.651962,-0.29248 -0.651962,-0.65196 v -0.30091 c 0,-0.083 0.06749,-0.15045 0.150452,-0.15045 h 1.099746 c 0.08296,0 0.150453,0.0675 0.150453,0.15045 z m -0.854277,-2.9161 v -3.17856 c 0,-0.0874 -0.04427,-0.16682 -0.118472,-0.21226 -0.07326,-0.045 -0.162843,-0.0486 -0.239735,-0.01 l -0.734388,0.37349 -0.587902,-1.14809 1.547087,-0.83924 0.837531,-3.8e-4 c 0.15153,0.66514 0.648142,1.13535 1.218805,1.13535 0.571201,0 1.068009,-0.4709 1.219049,-1.13682 l 0.837384,-3.8e-4 1.547039,0.84155 -0.587901,1.14828 -0.734537,-0.37349 c -0.0767,-0.0391 -0.16632,-0.0354 -0.239783,0.01 -0.07415,0.0455 -0.118424,0.12483 -0.118424,0.21226 v 3.17856 z m 3.178609,2.9161 c 0,0.35948 -0.292482,0.65196 -0.651964,0.65196 h -0.09668 c -0.35948,0 -0.651962,-0.29248 -0.651962,-0.65196 v -0.30091 c 0,-0.083 0.06749,-0.15045 0.150453,-0.15045 h 1.099696 c 0.08296,0 0.150453,0.0675 0.150453,0.15045 z m 3.667582,0.15251 h -1.886635 l -0.156733,-2.37159 c -0.0094,-0.14231 -0.03078,-0.26713 -0.281643,-0.26849 -0.243371,-0.007 -0.270114,0.11488 -0.28691,0.26849 l -0.140407,2.37159 h -0.627731 c 0.0081,-0.0498 0.01338,-0.10049 0.01338,-0.15251 v -0.30091 c 0,-0.24889 -0.202465,-0.45136 -0.451359,-0.45136 h -0.820976 v -1.86293 h 1.692643 c 0.136152,0 0.246836,-0.11147 0.246836,-0.2485 v -0.97892 l 2.331958,-0.005 z m -0.3999,-4.29604 h -2.299632 v -0.3128 l 2.276544,0.005 z"
       id="path20-1"
       style="display:inline;stroke:#000000;stroke-width:0.10030185;stroke-opacity:1"
       sodipodi:nodetypes="cccccccccscccscsccccccccsscccscsssssssccsssscssccssssccssssssssscsccccccsccccccsccsssssssssccsccccsssccsscccccccc" />
  </g>
</svg>
