<?xml version="1.0" encoding="UTF-8" standalone="no"?>
<!-- Created with Inkscape (http://www.inkscape.org/) -->

<svg
   xmlns:dc="http://purl.org/dc/elements/1.1/"
   xmlns:cc="http://creativecommons.org/ns#"
   xmlns:rdf="http://www.w3.org/1999/02/22-rdf-syntax-ns#"
   xmlns:svg="http://www.w3.org/2000/svg"
   xmlns="http://www.w3.org/2000/svg"
   xmlns:sodipodi="http://sodipodi.sourceforge.net/DTD/sodipodi-0.dtd"
   xmlns:inkscape="http://www.inkscape.org/namespaces/inkscape"
   width="49.999996"
   height="49.999996"
   viewBox="0 0 13.229166 13.229166"
   version="1.1"
   id="svg16055"
   sodipodi:docname="coop_white.svg"
   inkscape:version="0.92.2pre0 650254f, 2017-08-06">
  <defs
     id="defs16049" />
  <sodipodi:namedview
     id="base"
     pagecolor="#ffffff"
     bordercolor="#666666"
     borderopacity="1.0"
     inkscape:pageopacity="0.0"
     inkscape:pageshadow="2"
     inkscape:zoom="0.98994949"
     inkscape:cx="-227.41099"
     inkscape:cy="-186.92426"
     inkscape:document-units="mm"
     inkscape:current-layer="layer1"
     showgrid="false"
     fit-margin-top="0"
     fit-margin-left="0"
     fit-margin-right="0"
     fit-margin-bottom="0"
     units="px"
     inkscape:window-width="1164"
     inkscape:window-height="862"
     inkscape:window-x="62"
     inkscape:window-y="274"
     inkscape:window-maximized="0" />
  <metadata
     id="metadata16052">
    <rdf:RDF>
      <cc:Work
         rdf:about="">
        <dc:format>image/svg+xml</dc:format>
        <dc:type
           rdf:resource="http://purl.org/dc/dcmitype/StillImage" />
        <dc:title></dc:title>
      </cc:Work>
    </rdf:RDF>
  </metadata>
  <g
     inkscape:label="Capa 1"
     inkscape:groupmode="layer"
     id="layer1"
     transform="translate(-68.224704,-158.8497)">
    <path
       style="display:inline;fill:#ffffff;stroke-width:0.0083547"
       d="m 74.488317,170.3539 c -0.368914,-0.0262 -0.800928,-0.10894 -1.132183,-0.21673 -0.05744,-0.0186 -0.1078,-0.0319 -0.112041,-0.0292 -0.0038,0.002 -0.02018,-0.002 -0.03546,-0.0116 -0.01528,-0.009 -0.08981,-0.0405 -0.165634,-0.0703 -1.107731,-0.43454 -2.02295,-1.25931 -2.569639,-2.31566 -0.248329,-0.47983 -0.418973,-1.01183 -0.495796,-1.54577 -0.03456,-0.23949 -0.04548,-0.40641 -0.04599,-0.69345 -4.49e-4,-0.29026 0.0077,-0.40821 0.04189,-0.67254 0.122449,-0.92332 0.52518,-1.81538 1.142847,-2.53147 0.109986,-0.12758 0.343384,-0.36338 0.46866,-0.47361 0.313638,-0.27593 0.649145,-0.50378 1.023456,-0.69504 0.556519,-0.28435 1.135973,-0.45166 1.787907,-0.51616 0.204514,-0.0201 0.681113,-0.0201 0.885589,0 0.632623,0.0625 1.204805,0.22497 1.746149,0.49545 0.503723,0.25173 0.925729,0.55838 1.31619,0.9565 0.172174,0.17555 0.282609,0.30281 0.41373,0.47679 0.570808,0.75736 0.894712,1.6074 0.978357,2.56743 0.01593,0.18349 0.01349,0.63107 -0.0038,0.81876 -0.03701,0.38634 -0.106519,0.72767 -0.218506,1.07358 -0.341919,1.05648 -1.038952,1.97075 -1.971466,2.58589 -0.702776,0.4636 -1.516926,0.73769 -2.368556,0.79744 -0.139743,0.01 -0.544094,0.009 -0.685083,-5.3e-4 z m 0.772802,-0.4625 c 0.272022,-0.0273 0.50867,-0.0705 0.754429,-0.13779 0.1409,-0.0385 0.34012,-0.10226 0.371381,-0.11859 0.01387,-0.008 0.01465,-0.0631 0.01465,-0.99324 v -0.98557 h -1.579038 -1.579037 v 0.98099 0.98098 l 0.03546,0.013 c 0.01953,0.008 0.05988,0.022 0.08981,0.0329 0.147954,0.0542 0.405842,0.12334 0.609893,0.16376 0.197769,0.0391 0.336137,0.056 0.647489,0.0793 0.09019,0.007 0.516457,-0.004 0.634947,-0.0157 z m 2.268311,-0.88199 c 0.382777,-0.28893 0.713107,-0.63527 0.995805,-1.04409 0.05705,-0.0823 0.152631,-0.2348 0.176979,-0.28199 l 0.014,-0.0271 h -0.66441 -0.66441 v 0.72781 0.72782 l 0.023,-0.0149 c 0.01285,-0.008 0.0663,-0.0475 0.119108,-0.0875 z m -5.271827,-0.63889 v -0.71434 h -0.648286 -0.648272 l 0.02698,0.0481 c 0.18596,0.33113 0.514337,0.73975 0.815486,1.01483 0.167613,0.15308 0.425963,0.36385 0.447831,0.36537 0.0038,2.3e-4 0.0065,-0.32103 0.0065,-0.71391 z m 3.579025,-3.94348 c 0.485325,-1.64046 0.882404,-2.98562 0.882404,-2.98924 0,-0.013 -0.278883,-0.12852 -0.444697,-0.1843 -0.929185,-0.31256 -1.934473,-0.31257 -2.871059,-5e-5 -0.185009,0.0616 -0.577539,0.23031 -0.577539,0.24801 0,0.0197 2.117915,5.9199 2.122977,5.91434 0.0038,-0.004 0.402603,-1.34828 0.887914,-2.98876 z m -4.181261,0.0554 c 0.474043,-1.54109 0.86002,-2.80385 0.857721,-2.80615 -0.0051,-0.005 -0.136146,0.079 -0.265687,0.17102 -0.214267,0.15209 -0.394214,0.30745 -0.604073,0.52149 -0.339644,0.3464 -0.59635,0.71086 -0.81424,1.156 -0.32199,0.65782 -0.46844,1.35872 -0.441895,2.11478 0.01799,0.51036 0.12232,1.00156 0.315142,1.48231 0.06463,0.16125 0.0776,0.18782 0.08481,0.17434 0.0038,-0.007 0.394187,-1.2727 0.868242,-2.81379 z m 7.330702,2.61369 c 0.164927,-0.42134 0.262488,-0.84497 0.29817,-1.29469 0.01156,-0.14574 0.01156,-0.53365 0,-0.67278 -0.04857,-0.58474 -0.18844,-1.10037 -0.434893,-1.60386 -0.229196,-0.46821 -0.486404,-0.82711 -0.859545,-1.19931 -0.240028,-0.23944 -0.418947,-0.38741 -0.673417,-0.55694 -0.118208,-0.0787 -0.295355,-0.18622 -0.306944,-0.18622 -0.0038,0 -0.0051,0.007 -0.0025,0.0147 0.0038,0.008 0.432605,1.27223 0.954459,2.80927 1.040995,3.06608 0.962348,2.83596 0.967308,2.83102 0.0025,-0.002 0.02775,-0.0654 0.0573,-0.14111 z"
       id="path12341"
       inkscape:connector-curvature="0" />
  </g>
</svg>
