<?xml version="1.0" encoding="UTF-8" standalone="no"?>
<!-- Created with Inkscape (http://www.inkscape.org/) -->

<svg
   xmlns:dc="http://purl.org/dc/elements/1.1/"
   xmlns:cc="http://creativecommons.org/ns#"
   xmlns:rdf="http://www.w3.org/1999/02/22-rdf-syntax-ns#"
   xmlns:svg="http://www.w3.org/2000/svg"
   xmlns="http://www.w3.org/2000/svg"
   xmlns:sodipodi="http://sodipodi.sourceforge.net/DTD/sodipodi-0.dtd"
   xmlns:inkscape="http://www.inkscape.org/namespaces/inkscape"
   width="49.999996"
   height="49.999996"
   viewBox="0 0 13.229166 13.229166"
   version="1.1"
   id="svg16055"
   sodipodi:docname="disabled_black.svg"
   inkscape:version="0.92.2pre0 650254f, 2017-08-06">
  <defs
     id="defs16049" />
  <sodipodi:namedview
     id="base"
     pagecolor="#ffffff"
     bordercolor="#666666"
     borderopacity="1.0"
     inkscape:pageopacity="0.0"
     inkscape:pageshadow="2"
     inkscape:zoom="0.98994949"
     inkscape:cx="-227.41099"
     inkscape:cy="-186.92426"
     inkscape:document-units="mm"
     inkscape:current-layer="layer1"
     showgrid="false"
     fit-margin-top="0"
     fit-margin-left="0"
     fit-margin-right="0"
     fit-margin-bottom="0"
     units="px"
     inkscape:window-width="1164"
     inkscape:window-height="862"
     inkscape:window-x="62"
     inkscape:window-y="274"
     inkscape:window-maximized="0" />
  <metadata
     id="metadata16052">
    <rdf:RDF>
      <cc:Work
         rdf:about="">
        <dc:format>image/svg+xml</dc:format>
        <dc:type
           rdf:resource="http://purl.org/dc/dcmitype/StillImage" />
        <dc:title></dc:title>
      </cc:Work>
    </rdf:RDF>
  </metadata>
  <g
     inkscape:label="Capa 1"
     inkscape:groupmode="layer"
     id="layer1"
     transform="translate(-68.224704,-158.8497)">
    <g
       transform="translate(-223.81959,244.40151)"
       style="display:inline"
       id="g23318">
      <g
         id="g48-6"
         transform="matrix(0.07158933,0,0,0.07158933,294.88122,-84.681799)">
        <path
           style="stroke:#000000;stroke-opacity:1"
           id="path42-0"
           d="m 61.4,75.7 c -4,4.2 -9.4,6.7 -15.2,7 C 40.2,83 34.4,81 29.9,77 25.4,73 22.8,67.5 22.5,61.4 c -0.4,-7.2 2.7,-14.2 8.3,-18.7 1.1,-0.9 1.3,-2.6 0.4,-3.7 -0.9,-1.1 -2.6,-1.3 -3.7,-0.4 -6.9,5.6 -10.8,14.3 -10.3,23.1 0.4,7.4 3.7,14.2 9.2,19.2 5.2,4.6 11.7,7.1 18.6,7.1 0.5,0 1,0 1.5,0 7.2,-0.4 13.8,-3.5 18.8,-8.7 1,-1.1 1,-2.7 -0.1,-3.8 -1.1,-0.9 -2.8,-0.8 -3.8,0.2 z"
           inkscape:connector-curvature="0" />
        <path
           id="path44-7"
           d="M 81,79.5 69.5,53.4 C 69.2,52.8 68.8,52.2 68.3,51.8 67.5,51 66.4,50.5 65.1,50.5 H 48 l -2.1,-9.8 h 12.3 c 2.1,0 3.9,-1.7 3.9,-3.9 0,-2.1 -1.7,-3.9 -3.9,-3.9 H 44.3 c 0,0 0,0 -0.1,0 L 43.8,31 c -0.7,-3.2 -3.8,-5.3 -7.1,-4.6 -3.2,0.7 -5.3,3.8 -4.6,7.1 L 37,55.8 c 0.1,0.4 0.2,0.8 0.4,1.2 0.8,2.2 2.9,3.7 5.4,3.7 h 19.3 l 10,22.7 c 1.1,2.5 4,3.6 6.5,2.5 2.4,-1 3.5,-3.9 2.4,-6.4 z"
           inkscape:connector-curvature="0" />
        <circle
           id="circle46-4"
           r="7.8000002"
           cy="17.9"
           cx="37" />
      </g>
      <g
         data-name="Group"
         id="g3713"
         transform="matrix(0.11228013,0,0,0.11228013,293.04487,-84.784432)">
        <path
           data-name="Compound Path"
           d="M 22.9,67.3 A 1,1 0 0 1 22,66.9 l -6.2,-8 -0.3,-15.7 A 5.8,5.8 0 0 0 9.6,37.5 v 0 A 5.7,5.7 0 0 0 4,43.2 V 64 a 6.6,6.6 0 0 0 1.9,4.6 L 22.2,85.5 21.8,96.7 43,96.5 42,71.9 A 6.5,6.5 0 0 0 40.6,68.2 L 30.1,54.1 a 5.7,5.7 0 0 0 -9.5,6.2 l 3.1,5.5 A 1,1 0 0 1 23,67.2 Z M 27.1,63.9 24,58.4 a 1.7,1.7 0 0 1 2.8,-1.8 l 10.7,14 a 2.6,2.6 0 0 1 0.6,1.4 l 0.8,20.4 H 26 L 26.3,83.7 8.7,65.8 A 2.6,2.6 0 0 1 8,64 V 43.2 a 1.7,1.7 0 0 1 1.7,-1.7 v 0 a 1.8,1.8 0 0 1 1.8,1.7 l 0.3,17 7,9.1 a 5,5 0 0 0 8.3,-5.5 z"
           id="path3707"
           inkscape:connector-curvature="0" />
        <path
           data-name="Compound Path"
           d="m 96,43.2 a 5.7,5.7 0 0 0 -5.7,-5.7 v 0 a 5.8,5.8 0 0 0 -5.8,5.7 l -0.2,15.7 -6.2,8 a 1,1 0 0 1 -0.9,0.4 1,1 0 0 1 -0.7,-1.4 l 3.1,-5.5 a 5.7,5.7 0 0 0 -9.5,-6.2 l -10.6,14 A 6.6,6.6 0 0 0 58,72 l -1,24.6 21.2,0.2 -0.4,-11.2 16.3,-17 A 6.6,6.6 0 0 0 96,64 Z M 91.3,65.8 73.7,83.9 74,92.6 H 61.1 l 0.8,-20.4 a 2.7,2.7 0 0 1 0.6,-1.5 L 73.1,56.5 a 1.7334936,1.7334936 0 0 1 2.9,1.9 l -3.1,5.5 a 5,5 0 0 0 8.3,5.5 l 7,-9.1 0.3,-17 a 1.8,1.8 0 0 1 1.9,-1.7 v 0 A 1.7,1.7 0 0 1 92,43.2 V 64 a 2.6,2.6 0 0 1 -0.7,1.8 z"
           id="path3709"
           inkscape:connector-curvature="0" />
      </g>
    </g>
  </g>
</svg>
