<?xml version="1.0" encoding="UTF-8" standalone="no"?>
<!-- Created with Inkscape (http://www.inkscape.org/) -->

<svg
   xmlns:dc="http://purl.org/dc/elements/1.1/"
   xmlns:cc="http://creativecommons.org/ns#"
   xmlns:rdf="http://www.w3.org/1999/02/22-rdf-syntax-ns#"
   xmlns:svg="http://www.w3.org/2000/svg"
   xmlns="http://www.w3.org/2000/svg"
   xmlns:sodipodi="http://sodipodi.sourceforge.net/DTD/sodipodi-0.dtd"
   xmlns:inkscape="http://www.inkscape.org/namespaces/inkscape"
   width="49.999996"
   height="49.999996"
   viewBox="0 0 13.229166 13.229166"
   version="1.1"
   id="svg16055"
   sodipodi:docname="economy_black.svg"
   inkscape:version="0.92.2pre0 650254f, 2017-08-06">
  <defs
     id="defs16049" />
  <sodipodi:namedview
     id="base"
     pagecolor="#ffffff"
     bordercolor="#666666"
     borderopacity="1.0"
     inkscape:pageopacity="0.0"
     inkscape:pageshadow="2"
     inkscape:zoom="0.98994949"
     inkscape:cx="-227.41099"
     inkscape:cy="-186.92426"
     inkscape:document-units="mm"
     inkscape:current-layer="layer1"
     showgrid="false"
     fit-margin-top="0"
     fit-margin-left="0"
     fit-margin-right="0"
     fit-margin-bottom="0"
     units="px"
     inkscape:window-width="1164"
     inkscape:window-height="862"
     inkscape:window-x="62"
     inkscape:window-y="274"
     inkscape:window-maximized="0" />
  <metadata
     id="metadata16052">
    <rdf:RDF>
      <cc:Work
         rdf:about="">
        <dc:format>image/svg+xml</dc:format>
        <dc:type
           rdf:resource="http://purl.org/dc/dcmitype/StillImage" />
        <dc:title></dc:title>
      </cc:Work>
    </rdf:RDF>
  </metadata>
  <g
     inkscape:label="Capa 1"
     inkscape:groupmode="layer"
     id="layer1"
     transform="translate(-68.224704,-158.8497)">
    <g
       id="g10217"
       transform="matrix(0.91920933,0,0,0.91920933,72.259507,-52.643579)"
       style="display:inline;stroke:#000000;stroke-opacity:1">
      <path
         style="stroke:#000000;stroke-width:0.19374637;stroke-opacity:1"
         id="path4-51"
         d="m 8.3870386,240.6005 c -0.1187669,-0.5082 -0.6141759,-0.83485 -1.1279914,-0.7438 l -1.6807501,0.2978 c -0.1317471,0.0233 -0.2195148,0.14898 -0.1962652,0.28073 0.02325,0.13175 0.1489913,0.21952 0.2807391,0.19627 l 1.6807494,-0.29779 c 0.2605892,-0.0461 0.5116845,0.11954 0.5719394,0.37703 0.031385,0.13426 0.00696,0.27163 -0.068782,0.38671 -0.075755,0.11509 -0.1920026,0.1922 -0.3276248,0.21662 l -3.3771935,0.6101 c -0.281126,0.0507 -0.572133,2e-4 -0.8195472,-0.14279 L 0.36322378,240.07293 -0.49352276,239.073 0.86192698,236.72538 2.400467,237.6137 c 0.2073087,0.11974 0.3731555,0.29643 0.4793286,0.5113 l 0.8631402,1.74546 c 0.038555,0.0779 0.043399,0.16585 0.01395,0.24761 -0.02945,0.0818 -0.089705,0.14608 -0.1691406,0.18135 -0.1389161,0.0616 -0.3022444,0.0151 -0.3882678,-0.11005 l -0.8693378,-1.26633 c -0.075755,-0.11024 -0.2264895,-0.13834 -0.3367312,-0.0626 -0.1102418,0.0757 -0.1383349,0.22648 -0.06258,0.33672 l 0.8693401,1.26633 c 0.069361,0.10094 0.1584845,0.18174 0.2592327,0.23986 0.2158334,0.12458 0.4845597,0.14531 0.7246114,0.0389 0.2013025,-0.0891 0.3535872,-0.25225 0.4285671,-0.45936 0.07498,-0.20712 0.06258,-0.42974 -0.035068,-0.62716 l -0.8631402,-1.74546 c -0.1486035,-0.3007 -0.3809054,-0.54831 -0.6713312,-0.7159 L 1.102369,236.30488 c 0.1011356,-0.22377 0.017825,-0.49308 -0.19936499,-0.61844 l -1.42616724,-0.82342 c -0.23133318,-0.13349 -0.52815257,-0.054 -0.66164387,0.17728 l -1.7921541,3.10401 c -0.1334912,0.23133 -0.054055,0.52815 0.1772779,0.66165 l 1.4261672,0.82342 c 0.2094399,0.1209 0.47235373,0.0666 0.6194072,-0.11645 l 0.77711682,0.90674 c 0.01782491,0.0207 0.03913689,0.0384 0.06277383,0.0521 l 2.99493155,1.72919 c 0.3464186,0.19994 0.754061,0.27105 1.1477537,0.19994 l 3.3771928,-0.6101 c 0.2675641,-0.0483 0.4971533,-0.20015 0.6463379,-0.42741 0.1491846,-0.22726 0.197428,-0.49812 0.135623,-0.76297 z m -9.5189537,-1.39052 -1.4261671,-0.82343 1.79215399,-3.10401 1.42616716,0.82343 -1.79196035,3.1042 z"
         inkscape:connector-curvature="0" />
      <path
         style="stroke:#000000;stroke-width:0.19374637;stroke-opacity:1"
         id="path6-29"
         d="m 5.7650691,232.12758 c -1.1589913,0 -2.1027299,0.94393 -2.1027299,2.10293 0,0 0,0 0,0 0,0 0,0 0,0 v 0 c 1.938e-4,0.76665 0.4181047,1.47343 1.0900176,1.84272 0.028676,0.0161 0.062777,0.0254 0.099198,0.0254 0.080599,0 0.1505408,-0.0463 0.184253,-0.11393 l 5.814e-4,-0.001 c 0.2840321,-0.57833 0.87089,-0.9447 1.5152902,-0.94567 0.2848068,0 0.5649645,0.0721 0.8145096,0.20925 0.028676,0.0161 0.062778,0.0254 0.099198,0.0254 0.080405,0 0.1501533,-0.0461 0.1840589,-0.11335 l 5.814e-4,-0.001 c 0.1425971,-0.28829 0.2173831,-0.60526 0.2181586,-0.92688 0,0 0,-2e-4 0,-2e-4 0,0 0,-1.9e-4 0,-3.8e-4 v 0 c 0,-1.159 -0.9439324,-2.10293 -2.1027295,-2.10293 z m 0,0.41171 c 0.9363759,0 1.691018,0.75445 1.691018,1.69083 -5.814e-4,0.19103 -0.033904,0.38013 -0.097454,0.55934 -0.2553579,-0.10637 -0.5291221,-0.16332 -0.8071481,-0.16332 0,0 -1.933e-4,0 -1.933e-4,0 0,0 -1.94e-4,0 -1.94e-4,0 v 0 c -0.7232547,7.3e-4 -1.3872235,0.37605 -1.7694852,0.97802 -0.4403856,-0.31503 -0.7077558,-0.824 -0.7079496,-1.37365 v 0 c 0,-0.93638 0.7546421,-1.69103 1.6910182,-1.69103 z"
         inkscape:connector-curvature="0" />
      <path
         style="stroke:#000000;stroke-width:0.19374637;stroke-opacity:1"
         id="path8-73"
         d="m 6.5514849,234.62614 c -1.1589903,0 -2.1027294,0.94393 -2.1027294,2.10291 0,1.159 0.9439324,2.10293 2.1027294,2.10293 1.1589913,0 2.1029237,-0.94393 2.1029237,-2.10293 0,-1.15898 -0.9439324,-2.10291 -2.1029237,-2.10291 z m 0,0.41171 c 0.9363769,0 1.6912123,0.75464 1.6912123,1.6912 0,0.93658 -0.7546421,1.69122 -1.6912123,1.69122 -0.9363759,0 -1.691018,-0.75464 -1.691018,-1.69122 0,-0.93656 0.7546421,-1.6912 1.691018,-1.6912 z"
         inkscape:connector-curvature="0" />
    </g>
  </g>
</svg>
