<?xml version="1.0" encoding="UTF-8" standalone="no"?>
<!-- Created with Inkscape (http://www.inkscape.org/) -->

<svg
   xmlns:dc="http://purl.org/dc/elements/1.1/"
   xmlns:cc="http://creativecommons.org/ns#"
   xmlns:rdf="http://www.w3.org/1999/02/22-rdf-syntax-ns#"
   xmlns:svg="http://www.w3.org/2000/svg"
   xmlns="http://www.w3.org/2000/svg"
   xmlns:sodipodi="http://sodipodi.sourceforge.net/DTD/sodipodi-0.dtd"
   xmlns:inkscape="http://www.inkscape.org/namespaces/inkscape"
   width="49.999996"
   height="49.999996"
   viewBox="0 0 13.229166 13.229166"
   version="1.1"
   id="svg16055"
   sodipodi:docname="fablab_black.svg"
   inkscape:version="0.92.2pre0 650254f, 2017-08-06">
  <defs
     id="defs16049" />
  <sodipodi:namedview
     id="base"
     pagecolor="#ffffff"
     bordercolor="#666666"
     borderopacity="1.0"
     inkscape:pageopacity="0.0"
     inkscape:pageshadow="2"
     inkscape:zoom="0.98994949"
     inkscape:cx="-227.41099"
     inkscape:cy="-186.92426"
     inkscape:document-units="mm"
     inkscape:current-layer="layer1"
     showgrid="false"
     fit-margin-top="0"
     fit-margin-left="0"
     fit-margin-right="0"
     fit-margin-bottom="0"
     units="px"
     inkscape:window-width="1164"
     inkscape:window-height="862"
     inkscape:window-x="62"
     inkscape:window-y="274"
     inkscape:window-maximized="0" />
  <metadata
     id="metadata16052">
    <rdf:RDF>
      <cc:Work
         rdf:about="">
        <dc:format>image/svg+xml</dc:format>
        <dc:type
           rdf:resource="http://purl.org/dc/dcmitype/StillImage" />
        <dc:title></dc:title>
      </cc:Work>
    </rdf:RDF>
  </metadata>
  <g
     inkscape:label="Capa 1"
     inkscape:groupmode="layer"
     id="layer1"
     transform="translate(-68.224704,-158.8497)">
    <g
       id="g11900"
       transform="translate(68.904072,409.83954)"
       style="display:inline;fill:#000000">
      <g
         style="fill:#000000"
         transform="translate(-33.639881)"
         id="g11896">
        <path
           id="path11890"
           d="m 41.891476,-245.93662 v 6.26024 h 1.87807 v -6.26024 z m 1.460688,0.83477 H 42.72614 v 0.41729 h 0.626024 v 0.41738 h -0.313011 v 0.41738 h 0.313011 v 0.41728 H 42.72614 v 0.41739 h 0.626024 v 0.41728 h -0.313011 v 0.41738 h 0.313011 v 0.41737 H 42.72614 v 0.41729 h 0.626024 v 0.41738 h -0.313011 v 0.41728 h 0.313011 v 0.41738 h -1.043305 v -5.42546 h 1.043305 z"
           style="fill:#000000;stroke-width:0.1001637"
           inkscape:connector-curvature="0" />
        <path
           id="path11892"
           d="m 38.499231,-244.83091 c -0.545091,-0.7955 -1.24854,-0.96387 -1.745552,-0.96387 -0.32403,0 -0.5506,0.0742 -0.560215,0.0774 -0.03075,0.0102 -0.0587,0.0276 -0.08153,0.0506 l -0.147541,0.14754 h -0.1223 c 0,-0.1153 -0.09335,-0.20864 -0.208641,-0.20864 h -0.417381 c -0.115289,0 -0.208641,0.0934 -0.208641,0.20864 v 0.62602 c 0,0.11529 0.09335,0.20865 0.208641,0.20865 h 0.417381 c 0.115289,0 0.208641,-0.0934 0.208641,-0.20865 h 0.208641 v 1.42683 l -0.197823,0.59387 c -0.0071,0.0213 -0.01081,0.0437 -0.01081,0.066 v 2.92138 c 0,0.11539 0.09336,0.20875 0.208641,0.20875 h 0.834765 c 0.115288,0 0.208641,-0.0934 0.208641,-0.20875 v -2.92138 c 0,-0.0225 -0.0037,-0.0447 -0.01082,-0.066 l -0.197823,-0.59387 v -1.30342 c 0.09045,-0.0387 0.196421,-0.0581 0.316317,-0.0581 0.491303,0 1.031886,0.31911 1.037195,0.32232 0.03255,0.0196 0.06851,0.029 0.104471,0.0293 0.117192,0.01 0.215352,-0.0908 0.215352,-0.20823 1.01e-4,-0.057 -0.02274,-0.10878 -0.05959,-0.14634 z"
           style="fill:#000000;stroke-width:0.1001637"
           inkscape:connector-curvature="0" />
        <path
           id="path11894"
           d="m 40.21694,-243.62403 c 0.103068,-0.16797 0.198124,-0.38112 0.199725,-0.6102 0.0014,-0.22367 -0.08614,-0.43081 -0.253514,-0.59788 -0.05398,-0.0542 -0.120196,-0.10837 -0.190711,-0.16546 -0.22597,-0.18251 -0.374111,-0.31793 -0.374111,-0.52166 0,-0.26934 0.25732,-0.58767 0.356381,-0.68752 0.08113,-0.0814 0.08093,-0.21355 -6.05e-4,-0.29508 -0.08174,-0.0811 -0.213348,-0.0811 -0.294681,3.8e-4 -0.04888,0.0489 -0.478482,0.4924 -0.478482,0.9823 0,0.41818 0.305699,0.66559 0.528964,0.84608 0.0581,0.0473 0.113485,0.0912 0.158159,0.13613 0.08884,0.0889 0.131615,0.1866 0.131214,0.29869 -0.0013,0.22576 -0.173984,0.47106 -0.284264,0.59786 -0.722381,0.011 -1.368838,0.16267 -1.368838,1.04251 v 0.83476 c 0,1.02578 0.546393,2.08672 1.460688,2.08672 0.94885,0 1.460686,-1.07516 1.460686,-2.08672 v -0.83476 c 1.01e-4,-0.74783 -0.466862,-0.96958 -1.050616,-1.02617 z m 0.633334,1.02618 v 0.20873 h -0.834663 v -0.83025 c 0.706454,0.0302 0.834663,0.22496 0.834663,0.62152 z m -1.252046,-0.62152 v 0.83025 h -0.834664 v -0.20873 c 0,-0.39656 0.128109,-0.59128 0.834664,-0.62152 z m 0.208742,3.1256 c -0.644354,0 -1.043406,-0.8664 -1.043406,-1.66933 v -0.20873 h 2.08671 v 0.20873 c 0,0.69324 -0.323627,1.66933 -1.043304,1.66933 z"
           style="fill:#000000;stroke-width:0.1001637"
           inkscape:connector-curvature="0" />
      </g>
      <path
         inkscape:connector-curvature="0"
         id="path11898"
         d="m 0.9281359,-246.25419 5.006883,-2.50409 5.0072831,2.50409"
         style="fill:none;stroke:#000000;stroke-width:0.565;stroke-linecap:butt;stroke-linejoin:miter;stroke-miterlimit:4;stroke-dasharray:none;stroke-opacity:1" />
    </g>
  </g>
</svg>
