<?xml version="1.0" encoding="UTF-8" standalone="no"?>
<!-- Created with Inkscape (http://www.inkscape.org/) -->

<svg
   xmlns:dc="http://purl.org/dc/elements/1.1/"
   xmlns:cc="http://creativecommons.org/ns#"
   xmlns:rdf="http://www.w3.org/1999/02/22-rdf-syntax-ns#"
   xmlns:svg="http://www.w3.org/2000/svg"
   xmlns="http://www.w3.org/2000/svg"
   xmlns:sodipodi="http://sodipodi.sourceforge.net/DTD/sodipodi-0.dtd"
   xmlns:inkscape="http://www.inkscape.org/namespaces/inkscape"
   width="49.999996"
   height="49.999996"
   viewBox="0 0 13.229166 13.229166"
   version="1.1"
   id="svg16055"
   sodipodi:docname="faircoop_black.svg"
   inkscape:version="0.92.2pre0 650254f, 2017-08-06">
  <defs
     id="defs16049" />
  <sodipodi:namedview
     id="base"
     pagecolor="#ffffff"
     bordercolor="#666666"
     borderopacity="1.0"
     inkscape:pageopacity="0.0"
     inkscape:pageshadow="2"
     inkscape:zoom="1.979899"
     inkscape:cx="-14.880545"
     inkscape:cy="17.897511"
     inkscape:document-units="mm"
     inkscape:current-layer="layer1"
     showgrid="false"
     fit-margin-top="0"
     fit-margin-left="0"
     fit-margin-right="0"
     fit-margin-bottom="0"
     units="px"
     inkscape:window-width="1164"
     inkscape:window-height="862"
     inkscape:window-x="62"
     inkscape:window-y="181"
     inkscape:window-maximized="0" />
  <metadata
     id="metadata16052">
    <rdf:RDF>
      <cc:Work
         rdf:about="">
        <dc:format>image/svg+xml</dc:format>
        <dc:type
           rdf:resource="http://purl.org/dc/dcmitype/StillImage" />
        <dc:title></dc:title>
      </cc:Work>
    </rdf:RDF>
  </metadata>
  <g
     inkscape:label="Capa 1"
     inkscape:groupmode="layer"
     id="layer1"
     transform="translate(-68.224704,-158.8497)">
    <g
       style="display:inline"
       transform="matrix(0.61057139,0,0,0.61057139,-79.535751,-89.472481)"
       id="g4888">
      <g
         id="g4822"
         transform="matrix(0.35277777,0,0,-0.35277777,253.51474,423.62176)">
        <path
           d="m 0,0 h -0.001 c -1.611,0 -3.223,0.211 -4.791,0.627 -4.826,1.283 -8.864,4.367 -11.37,8.686 -2.506,4.318 -3.18,9.354 -1.897,14.179 1.281,4.825 4.364,8.863 8.682,11.369 4.273,2.48 9.404,3.168 14.18,1.898 4.826,-1.281 8.864,-4.364 11.37,-8.681 2.507,-4.317 3.181,-9.353 1.9,-14.18 C 15.899,5.715 8.467,0 0,0 m -0.026,36.491 c -3.103,0 -6.18,-0.834 -8.898,-2.411 -4.109,-2.385 -7.043,-6.228 -8.262,-10.82 -1.221,-4.592 -0.579,-9.385 1.806,-13.494 C -12.996,5.657 -9.153,2.721 -4.56,1.501 -3.067,1.105 -1.534,0.904 -0.001,0.904 8.057,0.903 15.13,6.342 17.2,14.13 c 1.219,4.594 0.577,9.386 -1.808,13.495 -2.385,4.108 -6.228,7.042 -10.821,8.261 -1.509,0.401 -3.056,0.605 -4.597,0.605"
           style="fill:#000000;fill-opacity:1;fill-rule:nonzero;stroke:#000000;stroke-opacity:1"
           id="path4820"
           inkscape:connector-curvature="0" />
      </g>
      <g
         id="g4826"
         transform="matrix(0.35277777,0,0,-0.35277777,254.2313,423.26097)">
        <path
           d="M 0,0 C -0.273,-0.031 -0.548,-0.056 -0.824,-0.075 -0.548,-0.056 -0.273,-0.031 0,0"
           style="fill:#527bb8;fill-opacity:1;fill-rule:nonzero;stroke:none"
           id="path4824"
           inkscape:connector-curvature="0" />
      </g>
      <g
         id="g4830"
         transform="matrix(0.35277777,0,0,-0.35277777,254.61435,423.2052)">
        <path
           d="M 0,0 C -0.317,-0.057 -0.636,-0.105 -0.957,-0.145 -0.636,-0.105 -0.317,-0.056 0,0"
           style="fill:#527bb8;fill-opacity:1;fill-rule:nonzero;stroke:none"
           id="path4828"
           inkscape:connector-curvature="0" />
      </g>
      <g
         id="g4834"
         transform="matrix(0.35277777,0,0,-0.35277777,253.8527,423.29283)">
        <path
           d="M 0,0 C -0.318,-0.017 -0.637,-0.029 -0.959,-0.029 -0.637,-0.029 -0.318,-0.017 0,0"
           style="fill:#527bb8;fill-opacity:1;fill-rule:nonzero;stroke:none"
           id="path4832"
           inkscape:connector-curvature="0" />
      </g>
      <g
         id="g4838"
         transform="matrix(0.35277777,0,0,-0.35277777,258.94455,413.87644)">
        <path
           d="m 0,0 c -2.385,4.108 -6.228,7.042 -10.821,8.262 -1.509,0.401 -3.055,0.604 -4.597,0.604 -3.103,0 -6.18,-0.834 -8.897,-2.411 -2.955,-1.715 -5.298,-4.186 -6.837,-7.145 0.182,0.349 0.373,0.693 0.577,1.028 10.798,-8.575 9.541,-14.153 16.931,-12.116 5.219,1.438 6.308,-6.322 6.314,-13.005 -0.604,-0.307 -1.227,-0.581 -1.865,-0.819 5.296,1.973 9.489,6.41 11.004,12.108 C 3.028,-8.901 2.385,-4.109 0,0"
           style="fill:#000000;fill-opacity:1;fill-rule:nonzero;stroke:none"
           id="path4836"
           inkscape:connector-curvature="0" />
      </g>
      <g
         id="g4842"
         transform="matrix(0.35277777,0,0,-0.35277777,247.74647,414.55896)">
        <path
           d="M 0,0 C -0.147,-0.346 -0.28,-0.699 -0.406,-1.056 -0.28,-0.699 -0.147,-0.346 0,0"
           style="fill:#527bb8;fill-opacity:1;fill-rule:nonzero;stroke:none"
           id="path4840"
           inkscape:connector-curvature="0" />
      </g>
      <g
         id="g4846"
         transform="matrix(0.35277777,0,0,-0.35277777,247.57139,415.02339)">
        <path
           d="M 0,0 C -0.123,-0.366 -0.239,-0.736 -0.339,-1.113 -0.239,-0.736 -0.123,-0.366 0,0"
           style="fill:#527bb8;fill-opacity:1;fill-rule:nonzero;stroke:none"
           id="path4844"
           inkscape:connector-curvature="0" />
      </g>
      <g
         id="g4850"
         transform="matrix(0.35277777,0,0,-0.35277777,254.96952,423.13082)">
        <path
           d="M 0,0 C -0.284,-0.068 -0.571,-0.129 -0.859,-0.183 -0.571,-0.129 -0.284,-0.068 0,0"
           style="fill:#527bb8;fill-opacity:1;fill-rule:nonzero;stroke:none"
           id="path4848"
           inkscape:connector-curvature="0" />
      </g>
      <g
         id="g4854"
         transform="matrix(0.35277777,0,0,-0.35277777,247.92886,414.17016)">
        <path
           d="M 0,0 C -0.182,-0.357 -0.354,-0.719 -0.512,-1.09 -0.354,-0.719 -0.182,-0.357 0,0"
           style="fill:#527bb8;fill-opacity:1;fill-rule:nonzero;stroke:none"
           id="path4852"
           inkscape:connector-curvature="0" />
      </g>
      <g
         id="g4858"
         transform="matrix(0.35277777,0,0,-0.35277777,255.68471,422.91415)">
        <path
           d="M 0,0 C -0.626,-0.232 -1.268,-0.429 -1.922,-0.59 -1.268,-0.429 -0.627,-0.231 0,0"
           style="fill:#527bb8;fill-opacity:1;fill-rule:nonzero;stroke:none"
           id="path4856"
           inkscape:connector-curvature="0" />
      </g>
      <g
         id="g4862"
         transform="matrix(0.35277777,0,0,-0.35277777,254.13111,418.03156)">
        <path
           d="m 0,0 c -7.39,-2.037 -6.133,3.541 -16.931,12.116 -0.879,-1.444 -1.556,-3.022 -2.002,-4.702 -1.221,-4.593 -0.579,-9.385 1.805,-13.494 2.385,-4.11 6.228,-7.045 10.821,-8.266 1.492,-0.396 3.026,-0.597 4.559,-0.597 2.874,0 5.621,0.695 8.063,1.939 C 6.308,-6.322 5.22,1.438 0,0"
           style="fill:#ffffff;fill-opacity:1;fill-rule:nonzero;stroke:none"
           id="path4860"
           inkscape:connector-curvature="0" />
      </g>
      <g
         id="g4866"
         transform="matrix(0.35277777,0,0,-0.35277777,255.2516,424.52359)">
        <path
           d="m 0,0 c -0.211,-1.542 0.004,-2.505 0.721,-3.219 1.202,-1.196 3.154,-1.192 4.35,0.01 0.516,0.519 0.818,1.191 0.874,1.942 l 0.686,3.878 8.103,8.141 c 0.287,0.29 0.527,0.696 0.584,0.985 l 2.391,12.489 c 0.163,0.876 -0.441,1.756 -1.319,1.92 -0.427,0.08 -0.856,-0.009 -1.206,-0.25 -0.351,-0.24 -0.587,-0.609 -0.666,-1.037 l -1.7,-9.135 c 0.439,-0.565 0.613,-1.274 0.479,-1.983 -0.053,-0.295 -0.159,-0.574 -0.306,-0.803 L 12.907,12.82 C 12.815,12.69 12.7,12.528 12.552,12.391 L 8.057,7.865 7.407,8.51 l 4.509,4.539 c 0.092,0.086 0.169,0.194 0.243,0.3 l 0.078,0.109 c 0.065,0.102 0.128,0.27 0.16,0.449 0.096,0.505 -0.056,1.009 -0.414,1.385 l -0.115,0.122 c -0.313,0.269 -0.701,0.403 -1.085,0.403 -0.419,0 -0.834,-0.16 -1.145,-0.479 L 1.644,7.326 C 1.41,7.086 1.264,6.802 1.202,6.462 1.19,6.405 0.177,1.294 0,0"
           style="fill:#ffffff;fill-opacity:1;fill-rule:nonzero;stroke:none"
           id="path4864"
           inkscape:connector-curvature="0" />
      </g>
      <g
         id="g4870"
         transform="matrix(0.35277777,0,0,-0.35277777,256.27184,426.29746)">
        <path
           d="m 0,0 c -1.02,0 -2.039,0.386 -2.817,1.16 -1.193,1.189 -1.151,2.758 -0.982,3.993 0.18,1.32 1.168,6.298 1.209,6.51 0.094,0.51 0.327,0.962 0.69,1.334 l 7.993,8.011 c 0.802,0.825 2.049,0.973 3.031,0.439 l 1.601,8.607 c 0.124,0.669 0.497,1.246 1.049,1.626 0.551,0.379 1.223,0.52 1.892,0.394 1.389,-0.259 2.309,-1.6 2.051,-2.99 L 13.325,16.591 C 13.214,16.027 12.822,15.47 12.492,15.135 L 4.591,7.197 3.96,3.647 C 3.894,2.722 3.5,1.85 2.829,1.174 2.05,0.391 1.025,0 0,0 m 7.891,20.846 c -0.419,0 -0.834,-0.16 -1.145,-0.48 L -1.248,12.354 C -1.482,12.114 -1.628,11.831 -1.69,11.49 -1.702,11.433 -2.715,6.322 -2.892,5.028 -3.104,3.486 -2.888,2.523 -2.171,1.809 -0.969,0.614 0.983,0.617 2.179,1.819 2.695,2.338 2.997,3.01 3.053,3.761 l 0.686,3.878 8.103,8.141 c 0.286,0.29 0.527,0.696 0.584,0.985 l 2.391,12.489 c 0.163,0.876 -0.441,1.757 -1.319,1.92 -0.427,0.08 -0.856,-0.009 -1.206,-0.249 -0.351,-0.241 -0.587,-0.609 -0.667,-1.038 L 9.926,20.753 c 0.439,-0.566 0.613,-1.275 0.479,-1.983 -0.053,-0.296 -0.159,-0.575 -0.306,-0.803 L 10.015,17.848 C 9.923,17.718 9.808,17.557 9.66,17.419 l -4.495,-4.526 -0.65,0.645 4.509,4.539 c 0.092,0.086 0.169,0.195 0.243,0.3 l 0.078,0.109 c 0.065,0.102 0.128,0.271 0.16,0.45 0.096,0.505 -0.056,1.008 -0.414,1.385 l -0.115,0.121 c -0.313,0.269 -0.701,0.404 -1.085,0.404"
           style="fill:#000000;fill-opacity:1;fill-rule:nonzero;stroke:#000000;stroke-width:0.50168455;stroke-miterlimit:4;stroke-dasharray:none;stroke-opacity:1"
           id="path4868"
           inkscape:connector-curvature="0" />
      </g>
      <g
         id="g4874"
         transform="matrix(0.35277777,0,0,-0.35277777,252.82142,410.84837)">
        <path
           d="m 0,0 c -0.137,-0.803 0.375,-1.627 1.198,-1.837 l 10.933,-2.916 c 0.327,-0.083 0.646,-0.068 0.971,0.049 0.057,0.019 4.988,1.695 6.198,2.189 1.439,0.588 2.164,1.256 2.424,2.233 0.435,1.639 -0.545,3.328 -2.185,3.764 -0.703,0.187 -1.435,0.113 -2.117,-0.215 L 13.722,1.923 2.621,4.872 C 2.284,4.954 1.792,4.991 1.477,4.881 L -10.536,0.708 c -0.409,-0.145 -0.74,-0.445 -0.932,-0.845 -0.191,-0.401 -0.216,-0.846 -0.071,-1.255 0.301,-0.85 1.204,-1.28 2.053,-0.98 l 8.757,3.095 c 0.27,0.662 0.797,1.168 1.479,1.407 0.28,0.1 0.574,0.149 0.842,0.138 L 1.766,2.25 C 1.927,2.234 2.11,2.215 2.295,2.157 L 8.458,0.528 8.34,0.085 H 8.341 8.34 L 8.223,-0.357 2.039,1.278 C 1.923,1.314 1.796,1.327 1.673,1.34 L 1.517,1.357 C 1.426,1.356 1.227,1.328 1.054,1.267 0.57,1.097 0.209,0.715 0.064,0.217 Z"
           style="fill:#ffffff;fill-opacity:1;fill-rule:nonzero;stroke:none"
           id="path4872"
           inkscape:connector-curvature="0" />
      </g>
      <g
         id="g4878"
         transform="matrix(0.35277777,0,0,-0.35277777,257.24579,412.86644)">
        <path
           d="m 0,0 c -0.213,0 -0.427,0.027 -0.641,0.082 l -10.933,2.915 c -1.115,0.285 -1.868,1.289 -1.896,2.404 l -8.253,-2.916 c -1.333,-0.469 -2.749,0.205 -3.221,1.537 -0.226,0.64 -0.188,1.335 0.109,1.956 0.296,0.621 0.813,1.088 1.455,1.314 l 12.015,4.175 c 0.526,0.182 1.207,0.126 1.671,0.012 L 1.139,8.602 4.525,9.83 c 0.828,0.401 1.804,0.499 2.708,0.258 C 9.36,9.522 10.631,7.331 10.067,5.203 9.635,3.578 8.257,2.829 7.104,2.358 5.869,1.854 1.066,0.221 0.862,0.152 0.58,0.051 0.291,0 0,0 m -12.542,5.72 c -0.137,-0.803 0.375,-1.627 1.199,-1.837 L -0.41,0.968 C -0.083,0.884 0.235,0.9 0.561,1.016 0.617,1.035 5.549,2.712 6.758,3.205 8.198,3.794 8.922,4.461 9.182,5.438 9.617,7.078 8.637,8.767 6.998,9.203 6.295,9.39 5.563,9.315 4.88,8.987 L 1.181,7.643 -9.92,10.592 c -0.338,0.083 -0.829,0.119 -1.145,0.01 L -23.078,6.428 c -0.408,-0.144 -0.74,-0.444 -0.931,-0.845 -0.191,-0.4 -0.217,-0.846 -0.072,-1.255 0.301,-0.85 1.204,-1.28 2.053,-0.98 l 8.758,3.095 c 0.269,0.663 0.796,1.169 1.478,1.408 0.281,0.099 0.574,0.149 0.842,0.138 l 0.174,-0.018 c 0.161,-0.017 0.344,-0.035 0.529,-0.094 l 6.163,-1.629 -0.234,-0.885 -6.184,1.635 c -0.117,0.037 -0.244,0.049 -0.366,0.062 l -0.157,0.017 c -0.091,0 -0.289,-0.029 -0.463,-0.09 -0.484,-0.169 -0.844,-0.552 -0.99,-1.05 z"
           style="fill:#000000;fill-opacity:1;fill-rule:nonzero;stroke:#000000;stroke-width:0.50168455;stroke-miterlimit:4;stroke-dasharray:none;stroke-opacity:1"
           id="path4876"
           inkscape:connector-curvature="0" />
      </g>
      <g
         id="g4882"
         transform="matrix(0.35277777,0,0,-0.35277777,248.02689,416.45863)">
        <path
           d="M 0,0 C -0.09,0.32 -0.265,0.591 -0.534,0.822 -0.576,0.859 -4.493,4.29 -5.525,5.09 -6.47,5.823 -7.246,6.166 -7.997,6.166 -8.225,6.166 -8.45,6.134 -8.677,6.073 -10.316,5.63 -11.29,3.935 -10.848,2.293 -10.656,1.588 -10.224,0.992 -9.6,0.57 l 3.013,-2.535 2.999,-11.088 c 0.113,-0.398 0.345,-0.81 0.56,-0.993 l 9.624,-8.323 c 0.69,-0.587 1.735,-0.505 2.327,0.185 0.283,0.33 0.421,0.747 0.388,1.172 -0.034,0.425 -0.234,0.816 -0.565,1.099 l -7.065,6.04 c -0.705,-0.098 -1.404,0.103 -1.953,0.572 -0.23,0.196 -0.424,0.434 -0.545,0.668 l -0.066,0.149 c -0.065,0.142 -0.144,0.319 -0.185,0.51 l -1.671,6.15 0.876,0.237 1.677,-6.173 c 0.026,-0.12 0.079,-0.238 0.13,-0.351 l 0.061,-0.139 c 0.052,-0.097 0.171,-0.24 0.312,-0.361 0.391,-0.334 0.903,-0.455 1.406,-0.331 l 0.211,0.052 c 0.776,0.286 1.234,1.143 1.005,1.962 z"
           style="fill:#ffffff;fill-opacity:1;fill-rule:nonzero;stroke:none"
           id="path4880"
           inkscape:connector-curvature="0" />
      </g>
      <g
         id="g4886"
         transform="matrix(0.35277777,0,0,-0.35277777,250.73026,424.80772)">
        <path
           d="m 0,0 c -0.587,0 -1.177,0.2 -1.658,0.608 l -9.624,8.324 c -0.422,0.36 -0.713,0.979 -0.844,1.439 l -2.926,10.82 -2.757,2.323 c -0.757,0.508 -1.331,1.303 -1.578,2.209 -0.573,2.126 0.688,4.32 2.81,4.892 1.622,0.441 2.961,-0.378 3.945,-1.14 1.054,-0.818 4.869,-4.16 5.03,-4.301 0.4,-0.344 0.674,-0.771 0.814,-1.266 l 2.939,-10.93 c 0.31,-1.108 -0.186,-2.262 -1.138,-2.841 L 1.673,4.444 C 2.188,4.002 2.5,3.392 2.552,2.725 2.604,2.058 2.39,1.407 1.948,0.892 1.443,0.303 0.724,0 0,0 m -15.66,29.833 c -0.228,0 -0.453,-0.032 -0.68,-0.094 -1.639,-0.442 -2.613,-2.137 -2.171,-3.779 0.192,-0.705 0.624,-1.301 1.248,-1.723 l 3.013,-2.535 2.999,-11.088 c 0.113,-0.399 0.345,-0.81 0.56,-0.994 L -1.067,1.297 C -0.377,0.711 0.667,0.793 1.26,1.483 1.543,1.813 1.681,2.229 1.647,2.655 1.614,3.08 1.414,3.47 1.083,3.754 l -7.065,6.04 c -0.705,-0.098 -1.404,0.103 -1.953,0.571 -0.231,0.197 -0.424,0.435 -0.545,0.669 l -0.066,0.149 c -0.065,0.142 -0.144,0.319 -0.185,0.51 l -1.671,6.149 0.876,0.238 1.676,-6.174 c 0.027,-0.12 0.08,-0.237 0.131,-0.35 l 0.061,-0.139 c 0.052,-0.097 0.171,-0.241 0.312,-0.361 0.391,-0.335 0.903,-0.455 1.406,-0.331 l 0.211,0.052 c 0.776,0.286 1.234,1.142 1.005,1.962 l -2.939,10.928 c -0.09,0.32 -0.265,0.59 -0.534,0.822 -0.042,0.037 -3.959,3.468 -4.991,4.268 -0.945,0.732 -1.721,1.076 -2.472,1.076"
           style="fill:#000000;fill-opacity:1;fill-rule:nonzero;stroke:#000000;stroke-width:0.50168455;stroke-miterlimit:4;stroke-dasharray:none;stroke-opacity:1"
           id="path4884"
           inkscape:connector-curvature="0" />
      </g>
    </g>
  </g>
</svg>
