<?xml version="1.0" encoding="UTF-8" standalone="no"?>
<!-- Created with Inkscape (http://www.inkscape.org/) -->

<svg
   xmlns:dc="http://purl.org/dc/elements/1.1/"
   xmlns:cc="http://creativecommons.org/ns#"
   xmlns:rdf="http://www.w3.org/1999/02/22-rdf-syntax-ns#"
   xmlns:svg="http://www.w3.org/2000/svg"
   xmlns="http://www.w3.org/2000/svg"
   xmlns:sodipodi="http://sodipodi.sourceforge.net/DTD/sodipodi-0.dtd"
   xmlns:inkscape="http://www.inkscape.org/namespaces/inkscape"
   width="49.999996"
   height="49.999996"
   viewBox="0 0 13.229166 13.229166"
   version="1.1"
   id="svg16055"
   sodipodi:docname="hardware_black.svg"
   inkscape:version="0.92.2pre0 650254f, 2017-08-06">
  <defs
     id="defs16049" />
  <sodipodi:namedview
     id="base"
     pagecolor="#ffffff"
     bordercolor="#666666"
     borderopacity="1.0"
     inkscape:pageopacity="0.0"
     inkscape:pageshadow="2"
     inkscape:zoom="0.49497475"
     inkscape:cx="-151.26007"
     inkscape:cy="-242.52694"
     inkscape:document-units="mm"
     inkscape:current-layer="layer1"
     showgrid="false"
     fit-margin-top="0"
     fit-margin-left="0"
     fit-margin-right="0"
     fit-margin-bottom="0"
     units="px"
     inkscape:window-width="1164"
     inkscape:window-height="862"
     inkscape:window-x="62"
     inkscape:window-y="274"
     inkscape:window-maximized="0" />
  <metadata
     id="metadata16052">
    <rdf:RDF>
      <cc:Work
         rdf:about="">
        <dc:format>image/svg+xml</dc:format>
        <dc:type
           rdf:resource="http://purl.org/dc/dcmitype/StillImage" />
        <dc:title></dc:title>
      </cc:Work>
    </rdf:RDF>
  </metadata>
  <g
     inkscape:label="Capa 1"
     inkscape:groupmode="layer"
     id="layer1"
     transform="translate(-68.224704,-158.8497)">
    <g
       transform="matrix(0.10867611,0,0,0.10867611,69.426552,56.532577)"
       id="g132"
       style="display:inline;stroke:#000000;stroke-opacity:1">
      <path
         inkscape:connector-curvature="0"
         style="color:#000000;text-indent:0;text-transform:none;direction:ltr;baseline-shift:baseline;display:inline;overflow:visible;visibility:visible;fill:#000000;fill-opacity:1;stroke:#000000;stroke-opacity:1;enable-background:accumulate"
         d="M 49.658914,960.36218 A 1.9958552,2.0002 0 0 0 49.16,960.51843 l -39.9131124,16 a 1.9958552,2.0002 0 1 0 1.4967414,3.6875 l 39.164742,-15.6875 37.917457,15.1875 v 29.28127 l -37.917457,15.1875 -37.917457,-15.1875 v -22.62502 a 1.9958552,2.0002 0 1 0 -3.9913112,0 v 40.00002 a 1.9958552,2.0002 0 0 0 1.2472848,1.8437 l 39.9131124,16 a 1.9958552,2.0002 0 0 0 1.496742,0 l 39.913112,-16 a 1.9958552,2.0002 0 0 0 1.247285,-1.8437 v -48.00002 a 1.9958552,2.0002 0 0 0 -1.247285,-1.84375 l -39.913112,-16 a 1.9958552,2.0002 0 0 0 -0.997828,-0.15625 z m 0.249457,18 c -5.63266,0 -10.772113,1.64706 -14.593232,4.46875 -3.821119,2.82169 -6.361152,6.93179 -6.361152,11.53125 0,4.59945 2.540033,8.67832 6.361152,11.50002 3.821119,2.8217 8.960573,4.5 14.593232,4.5 5.632659,0 10.772113,-1.6783 14.593232,-4.5 3.821118,-2.8217 6.361152,-6.90057 6.361152,-11.50002 0,-4.59946 -2.540034,-8.70956 -6.361152,-11.53125 -3.821119,-2.82169 -8.960572,-4.46875 -14.593232,-4.46875 z m 0,4 c 4.837951,0 9.182798,1.44218 12.223391,3.6875 3.040592,2.24532 4.739682,5.17995 4.739682,8.3125 0,1.04085 -0.19923,2.05674 -0.561278,3.03125 -3.89627,-3.76539 -9.812517,-6.03125 -16.401795,-6.03125 -6.589278,0 -12.505525,2.26586 -16.401795,6.03125 -0.362049,-0.97451 -0.561278,-1.9904 -0.561278,-3.03125 0,-3.13255 1.699089,-6.06718 4.739682,-8.3125 3.040593,-2.24532 7.385439,-3.6875 12.223391,-3.6875 z m 0,13 c 6.051119,0 11.295952,2.29194 14.250228,5.50002 -0.586873,0.6369 -1.266689,1.2199 -2.026837,1.7812 -3.040593,2.2454 -7.385439,3.7188 -12.223391,3.7188 -4.837953,0 -9.182798,-1.4734 -12.223391,-3.7188 -0.760148,-0.5613 -1.439964,-1.1443 -2.026838,-1.7812 2.954277,-3.20807 8.19911,-5.50002 14.250229,-5.50002 z m -37.917457,17.93752 35.921801,14.4062 v 11.6875 l -35.921801,-14.375 z m 75.834914,0 v 11.7187 l -35.921802,14.375 v -11.6875 z"
         marker="none"
         visibility="visible"
         display="inline"
         overflow="visible"
         id="path130" />
    </g>
  </g>
</svg>
