<?xml version="1.0" encoding="UTF-8" standalone="no"?>
<!-- Created with Inkscape (http://www.inkscape.org/) -->

<svg
   xmlns:dc="http://purl.org/dc/elements/1.1/"
   xmlns:cc="http://creativecommons.org/ns#"
   xmlns:rdf="http://www.w3.org/1999/02/22-rdf-syntax-ns#"
   xmlns:svg="http://www.w3.org/2000/svg"
   xmlns="http://www.w3.org/2000/svg"
   xmlns:sodipodi="http://sodipodi.sourceforge.net/DTD/sodipodi-0.dtd"
   xmlns:inkscape="http://www.inkscape.org/namespaces/inkscape"
   width="49.999996"
   height="49.999996"
   viewBox="0 0 13.229166 13.229166"
   version="1.1"
   id="svg16055"
   sodipodi:docname="magazine_white.svg"
   inkscape:version="0.92.2pre0 650254f, 2017-08-06">
  <defs
     id="defs16049" />
  <sodipodi:namedview
     id="base"
     pagecolor="#ffffff"
     bordercolor="#666666"
     borderopacity="1.0"
     inkscape:pageopacity="0.0"
     inkscape:pageshadow="2"
     inkscape:zoom="0.98994949"
     inkscape:cx="-227.41099"
     inkscape:cy="-186.92426"
     inkscape:document-units="mm"
     inkscape:current-layer="layer1"
     showgrid="false"
     fit-margin-top="0"
     fit-margin-left="0"
     fit-margin-right="0"
     fit-margin-bottom="0"
     units="px"
     inkscape:window-width="1164"
     inkscape:window-height="862"
     inkscape:window-x="62"
     inkscape:window-y="274"
     inkscape:window-maximized="0" />
  <metadata
     id="metadata16052">
    <rdf:RDF>
      <cc:Work
         rdf:about="">
        <dc:format>image/svg+xml</dc:format>
        <dc:type
           rdf:resource="http://purl.org/dc/dcmitype/StillImage" />
        <dc:title></dc:title>
      </cc:Work>
    </rdf:RDF>
  </metadata>
  <g
     inkscape:label="Capa 1"
     inkscape:groupmode="layer"
     id="layer1"
     transform="translate(-68.224704,-158.8497)">
    <g
       transform="matrix(0.39176555,0,0,0.38692754,16.203369,175.01781)"
       id="g12337"
       style="display:inline;fill:#ffffff">
      <path
         sodipodi:nodetypes="sscsssssssssssssscsccssccscsscc"
         inkscape:connector-curvature="0"
         d="m 160.91573,-33.778943 h -8.59896 c -1.08479,0 -2.03729,0.52917 -2.64583,1.32292 -0.60855,-0.79375 -1.56105,-1.32292 -2.64584,-1.32292 h -8.59896 c -0.37041,0 -0.66145,0.29104 -0.66145,0.66146 v 15.875 c 0,0.37041 0.29104,0.66146 0.66145,0.66146 h 8.59896 c 1.08479,0 1.98438,0.31701 1.98438,0.31701 0.003,0.336774 0.29104,0.66146 0.66146,0.66146 0.37041,0 0.63982,-0.291688 0.66145,-0.66146 0,0 0.89959,-0.31701 1.98438,-0.31701 h 8.59896 c 0.37041,0 0.66146,-0.29105 0.66146,-0.66146 v -15.875 c 0,-0.37042 -0.29105,-0.66146 -0.66146,-0.66146 z m -11.90625,16.53646 c -0.55563,-0.42334 -1.24354,-0.66146 -1.98438,-0.66146 h -7.9375 v -14.55208 h 7.9375 c 1.08479,0 1.98438,0.89958 1.98438,1.98437 z m 11.24479,-0.66146 h -7.9375 c -0.74083,0 -1.42875,0.23812 -1.98438,0.66146 v -13.22917 c 0,-1.08479 0.89959,-1.98437 1.98438,-1.98437 h 7.9375 z"
         id="path12315"
         style="fill:#ffffff;stroke-width:0.26458332" />
      <path
         inkscape:connector-curvature="0"
         d="m 147.0251,-31.133113 h -5.95312 c -0.37042,0 -0.66146,0.29104 -0.66146,0.66146 v 2.64583 c 0,0.37042 0.29104,0.66146 0.66146,0.66146 h 5.95312 c 0.37042,0 0.66146,-0.29104 0.66146,-0.66146 v -2.64583 c 0,-0.37042 -0.29104,-0.66146 -0.66146,-0.66146 z m -0.66146,2.64584 h -4.6302 v -1.32292 h 4.6302 z"
         id="path12317"
         style="fill:#ffffff;stroke-width:0.26458332" />
      <path
         inkscape:connector-curvature="0"
         d="m 158.26989,-25.841443 h -2.64583 c -0.37042,0 -0.66146,0.29104 -0.66146,0.66146 v 2.64583 c 0,0.37042 0.29104,0.66146 0.66146,0.66146 h 2.64583 c 0.37042,0 0.66146,-0.29104 0.66146,-0.66146 v -2.64583 c 0,-0.37042 -0.29104,-0.66146 -0.66146,-0.66146 z m -0.66145,2.64583 h -1.32292 v -1.32291 h 1.32292 z"
         id="path12319"
         style="fill:#ffffff;stroke-width:0.26458332" />
      <path
         inkscape:connector-curvature="0"
         d="m 147.0251,-25.841443 h -5.95312 c -0.37042,0 -0.66146,0.29104 -0.66146,0.66146 0,0.37041 0.29104,0.66146 0.66146,0.66146 h 5.95312 c 0.37042,0 0.66146,-0.29105 0.66146,-0.66146 0,-0.37042 -0.29104,-0.66146 -0.66146,-0.66146 z"
         id="path12321"
         style="fill:#ffffff;stroke-width:0.26458332" />
      <path
         inkscape:connector-curvature="0"
         d="m 147.0251,-23.195613 h -5.95312 c -0.37042,0 -0.66146,0.29104 -0.66146,0.66146 0,0.37042 0.29104,0.66146 0.66146,0.66146 h 5.95312 c 0.37042,0 0.66146,-0.29104 0.66146,-0.66146 0,-0.37042 -0.29104,-0.66146 -0.66146,-0.66146 z"
         id="path12323"
         style="fill:#ffffff;stroke-width:0.26458332" />
      <path
         inkscape:connector-curvature="0"
         d="m 147.0251,-20.549773 h -5.95312 c -0.37042,0 -0.66146,0.29104 -0.66146,0.66145 0,0.37042 0.29104,0.66146 0.66146,0.66146 h 5.95312 c 0.37042,0 0.66146,-0.29104 0.66146,-0.66146 0,-0.37041 -0.29104,-0.66145 -0.66146,-0.66145 z"
         id="path12325"
         style="fill:#ffffff;stroke-width:0.26458332" />
      <path
         inkscape:connector-curvature="0"
         d="m 151.65531,-30.471653 c 0,0.37042 0.29104,0.66146 0.66146,0.66146 h 5.95312 c 0.37042,0 0.66146,-0.29104 0.66146,-0.66146 0,-0.37042 -0.29104,-0.66146 -0.66146,-0.66146 h -5.95312 c -0.37042,0 -0.66146,0.29104 -0.66146,0.66146 z"
         id="path12327"
         style="fill:#ffffff;stroke-width:0.26458332" />
      <path
         inkscape:connector-curvature="0"
         d="m 158.26989,-28.487273 h -5.95312 c -0.37042,0 -0.66146,0.29104 -0.66146,0.66145 0,0.37042 0.29104,0.66146 0.66146,0.66146 h 5.95312 c 0.37042,0 0.66146,-0.29104 0.66146,-0.66146 0,-0.37041 -0.29104,-0.66145 -0.66146,-0.66145 z"
         id="path12329"
         style="fill:#ffffff;stroke-width:0.26458332" />
      <path
         inkscape:connector-curvature="0"
         d="m 158.26989,-20.549773 h -5.95312 c -0.37042,0 -0.66146,0.29104 -0.66146,0.66145 0,0.37042 0.29104,0.66146 0.66146,0.66146 h 5.95312 c 0.37042,0 0.66146,-0.29104 0.66146,-0.66146 0,-0.37041 -0.29104,-0.66145 -0.66146,-0.66145 z"
         id="path12331"
         style="fill:#ffffff;stroke-width:0.26458332" />
      <path
         inkscape:connector-curvature="0"
         d="m 152.31677,-24.518523 h 1.32292 c 0.37041,0 0.66145,-0.29105 0.66145,-0.66146 0,-0.37042 -0.29104,-0.66146 -0.66145,-0.66146 h -1.32292 c -0.37042,0 -0.66146,0.29104 -0.66146,0.66146 0,0.37041 0.29104,0.66146 0.66146,0.66146 z"
         id="path12333"
         style="fill:#ffffff;stroke-width:0.26458332" />
      <path
         inkscape:connector-curvature="0"
         d="m 152.31677,-21.872693 h 1.32292 c 0.37041,0 0.66145,-0.29104 0.66145,-0.66146 0,-0.37042 -0.29104,-0.66146 -0.66145,-0.66146 h -1.32292 c -0.37042,0 -0.66146,0.29104 -0.66146,0.66146 0,0.37042 0.29104,0.66146 0.66146,0.66146 z"
         id="path12335"
         style="fill:#ffffff;stroke-width:0.26458332" />
    </g>
  </g>
</svg>
