<?xml version="1.0" encoding="UTF-8" standalone="no"?>
<!-- Created with Inkscape (http://www.inkscape.org/) -->

<svg
   xmlns:dc="http://purl.org/dc/elements/1.1/"
   xmlns:cc="http://creativecommons.org/ns#"
   xmlns:rdf="http://www.w3.org/1999/02/22-rdf-syntax-ns#"
   xmlns:svg="http://www.w3.org/2000/svg"
   xmlns="http://www.w3.org/2000/svg"
   xmlns:sodipodi="http://sodipodi.sourceforge.net/DTD/sodipodi-0.dtd"
   xmlns:inkscape="http://www.inkscape.org/namespaces/inkscape"
   width="49.999996"
   height="49.999996"
   viewBox="0 0 13.229166 13.229166"
   version="1.1"
   id="svg16055"
   sodipodi:docname="medical_white.svg"
   inkscape:version="0.92.2pre0 650254f, 2017-08-06">
  <defs
     id="defs16049" />
  <sodipodi:namedview
     id="base"
     pagecolor="#ffffff"
     bordercolor="#666666"
     borderopacity="1.0"
     inkscape:pageopacity="0.0"
     inkscape:pageshadow="2"
     inkscape:zoom="0.98994949"
     inkscape:cx="-227.41099"
     inkscape:cy="-186.92426"
     inkscape:document-units="mm"
     inkscape:current-layer="layer1"
     showgrid="false"
     fit-margin-top="0"
     fit-margin-left="0"
     fit-margin-right="0"
     fit-margin-bottom="0"
     units="px"
     inkscape:window-width="1164"
     inkscape:window-height="862"
     inkscape:window-x="62"
     inkscape:window-y="274"
     inkscape:window-maximized="0" />
  <metadata
     id="metadata16052">
    <rdf:RDF>
      <cc:Work
         rdf:about="">
        <dc:format>image/svg+xml</dc:format>
        <dc:type
           rdf:resource="http://purl.org/dc/dcmitype/StillImage" />
        <dc:title></dc:title>
      </cc:Work>
    </rdf:RDF>
  </metadata>
  <g
     inkscape:label="Capa 1"
     inkscape:groupmode="layer"
     id="layer1"
     transform="translate(-68.224704,-158.8497)">
    <path
       style="display:inline;fill:#ffffff;stroke-width:0.03263286"
       d="m 72.674175,167.87097 c -1.3072,-1.31008 -2.0928,-2.12194 -2.18077,-2.25365 -0.78509,-1.17551 -0.6737,-2.69093 0.27089,-3.68533 0.46807,-0.49277 1.01657,-0.78639 1.66414,-0.89085 0.31067,-0.0501 0.94547,-0.0241 1.22843,0.0504 0.28806,0.0758 0.75731,0.30155 0.99643,0.47932 l 0.1969,0.14639 0.16206,-0.12488 c 0.48358,-0.37268 1.1166,-0.58254 1.75719,-0.58254 0.85967,0 1.57592,0.30187 2.14329,0.90331 0.54424,0.57692 0.79129,1.20501 0.79351,2.01733 0.002,0.64815 -0.15003,1.1574 -0.50218,1.68457 -0.0899,0.13455 -0.86144,0.93213 -2.1823,2.25591 -2.02231,2.02677 -2.04461,2.04778 -2.1738,2.04778 -0.12919,0 -0.15148,-0.021 -2.17379,-2.04778 z m 6.14695,-2.70859 0.12249,-0.20395 -0.36723,0.001 -0.36723,0.001 -0.36652,0.41463 c -0.66501,0.75227 -0.70379,0.7899 -0.81397,0.7899 -0.20346,0 -0.23925,-0.0639 -0.58402,-1.04265 -0.17735,-0.50343 -0.33016,-0.91532 -0.33958,-0.91532 -0.009,0 -0.1346,0.25039 -0.27816,0.55641 -0.14356,0.30603 -0.29606,0.59238 -0.33889,0.63634 -0.073,0.075 -0.0995,0.0799 -0.42712,0.0799 h -0.34924 l -0.43274,0.7158 c -0.23801,0.39369 -0.46137,0.74172 -0.49638,0.7734 -0.0858,0.0776 -0.2736,0.0744 -0.35335,-0.006 -0.0475,-0.048 -0.84136,-1.8254 -1.08505,-2.42952 -0.031,-0.0768 -0.0401,-0.0662 -0.15476,0.17948 -0.40749,0.87307 -0.36926,0.83214 -0.77744,0.83214 h -0.25126 l 1.84365,1.84418 1.84364,1.84418 1.92534,-1.93392 c 1.44188,-1.4483 1.9561,-1.98513 2.04782,-2.13787 z m -4.83956,0.41719 c 0.1842,-0.3045 0.35754,-0.5725 0.38521,-0.59555 0.031,-0.0258 0.18668,-0.0482 0.40546,-0.0582 l 0.35517,-0.0163 0.38547,-0.82588 c 0.21201,-0.45423 0.40999,-0.85038 0.43994,-0.88034 0.0728,-0.0729 0.29088,-0.0713 0.3726,0.003 0.0378,0.0342 0.2047,0.46611 0.41586,1.07614 0.19399,0.56046 0.35872,1.0262 0.36607,1.03498 0.014,0.0168 0.14435,-0.11752 0.58552,-0.60336 l 0.26669,-0.2937 0.58166,-0.0163 0.58166,-0.0163 -0.0103,-0.40095 c -0.0185,-0.75827 -0.21164,-1.22912 -0.70584,-1.72118 -0.48878,-0.48662 -0.9978,-0.70062 -1.66656,-0.70062 -0.60361,0 -1.13719,0.20423 -1.58674,0.60734 -0.31212,0.27987 -0.36194,0.27956 -0.68436,-0.004 -0.75874,-0.66784 -1.79336,-0.79722 -2.68214,-0.33539 -0.46063,0.23935 -0.88921,0.70572 -1.09392,1.19037 -0.23015,0.54491 -0.23396,1.29038 -0.009,1.81448 l 0.067,0.15616 0.33287,-0.009 0.33286,-0.009 0.32071,-0.68528 c 0.17639,-0.37692 0.35159,-0.71099 0.38934,-0.7424 0.0824,-0.0686 0.25084,-0.0744 0.33968,-0.0117 0.0382,0.0269 0.29019,0.56542 0.6186,1.32163 0.30483,0.70192 0.55584,1.27622 0.55782,1.27622 0.002,0 0.15429,-0.24914 0.33848,-0.55364 z"
       id="path13120"
       inkscape:connector-curvature="0"
       sodipodi:nodetypes="ccccccccsccccscccccccscsccsccccccscccsccccccsccccccccccsccccccccccccscc" />
  </g>
</svg>
