<?xml version="1.0" encoding="UTF-8" standalone="no"?>
<!-- Created with Inkscape (http://www.inkscape.org/) -->

<svg
   xmlns:dc="http://purl.org/dc/elements/1.1/"
   xmlns:cc="http://creativecommons.org/ns#"
   xmlns:rdf="http://www.w3.org/1999/02/22-rdf-syntax-ns#"
   xmlns:svg="http://www.w3.org/2000/svg"
   xmlns="http://www.w3.org/2000/svg"
   xmlns:sodipodi="http://sodipodi.sourceforge.net/DTD/sodipodi-0.dtd"
   xmlns:inkscape="http://www.inkscape.org/namespaces/inkscape"
   width="49.999996"
   height="49.999996"
   viewBox="0 0 13.229166 13.229166"
   version="1.1"
   id="svg16055"
   sodipodi:docname="natural_white.svg"
   inkscape:version="0.92.2pre0 650254f, 2017-08-06">
  <defs
     id="defs16049" />
  <sodipodi:namedview
     id="base"
     pagecolor="#ffffff"
     bordercolor="#666666"
     borderopacity="1.0"
     inkscape:pageopacity="0.0"
     inkscape:pageshadow="2"
     inkscape:zoom="0.98994949"
     inkscape:cx="-227.41099"
     inkscape:cy="-186.92426"
     inkscape:document-units="mm"
     inkscape:current-layer="layer1"
     showgrid="false"
     fit-margin-top="0"
     fit-margin-left="0"
     fit-margin-right="0"
     fit-margin-bottom="0"
     units="px"
     inkscape:window-width="1164"
     inkscape:window-height="862"
     inkscape:window-x="62"
     inkscape:window-y="274"
     inkscape:window-maximized="0" />
  <metadata
     id="metadata16052">
    <rdf:RDF>
      <cc:Work
         rdf:about="">
        <dc:format>image/svg+xml</dc:format>
        <dc:type
           rdf:resource="http://purl.org/dc/dcmitype/StillImage" />
        <dc:title></dc:title>
      </cc:Work>
    </rdf:RDF>
  </metadata>
  <g
     inkscape:label="Capa 1"
     inkscape:groupmode="layer"
     id="layer1"
     transform="translate(-68.224704,-158.8497)">
    <path
       inkscape:connector-curvature="0"
       id="path12045"
       d="m 76.176769,169.23099 -0.320036,-0.42727 -1.720393,-5.3e-4 -1.720391,-5.3e-4 -0.978632,-0.94674 c -0.538248,-0.52072 -1.01358,-1.02041 -1.056295,-1.11042 -0.103406,-0.21792 -0.09769,-0.40073 0.01851,-0.59131 0.116732,-0.19146 0.345492,-0.29385 0.656527,-0.29385 0.189635,0 0.276925,0.0306 0.464396,0.16314 0.483784,0.34188 1.425769,0.97623 1.449657,0.97623 0.01373,0 0.03783,-0.21897 0.05356,-0.48661 0.01573,-0.26763 0.05463,-0.6509 0.08644,-0.85171 l 0.05784,-0.3651 -0.179683,-0.19889 c -0.497759,-0.55096 -0.612662,-1.43528 -0.277145,-2.13297 0.401858,-0.83565 1.703889,-1.50631 3.229307,-1.66339 1.141225,-0.11752 2.283659,0.11356 2.573437,0.52051 l 0.100791,0.14155 -0.132227,0.0808 c -0.673581,0.41164 -1.091999,0.71795 -1.419604,1.03922 -0.367533,0.36041 -0.396292,0.404 -0.563855,0.85453 -0.410613,1.10401 -0.667172,1.48738 -1.128845,1.6868 -0.43945,0.18983 -1.228956,0.17861 -1.750581,-0.0249 -0.06624,-0.0258 -0.08472,0.0227 -0.120719,0.31689 -0.02338,0.19107 -0.03824,0.35431 -0.03301,0.36276 0.0052,0.008 0.08079,-0.0214 0.167933,-0.0666 0.216787,-0.11211 0.786256,-0.1329 2.05792,-0.0752 1.382149,0.0627 1.648644,0.1468 2.016494,0.63592 0.152396,0.20264 1.662734,2.79998 1.662734,2.85941 0,0.014 -0.646667,0.0254 -1.437037,0.0254 h -1.437038 z m 2.467214,-0.0356 c -0.01122,-0.0197 -0.240048,-0.42014 -0.508519,-0.89013 -0.881891,-1.54386 -0.895723,-1.55989 -1.446862,-1.6763 -0.312021,-0.0659 -2.617631,-0.12213 -2.800961,-0.0684 -0.176871,0.052 -0.212993,0.22848 -0.07668,0.37478 0.08697,0.0934 0.161356,0.10299 1.0465,0.13538 l 0.952878,0.0349 v 0.20813 0.20812 l -0.272974,-0.001 c -0.150137,-7.4e-4 -0.832592,-0.0304 -1.516569,-0.066 l -1.243592,-0.0646 -0.482412,-0.31608 c -0.265329,-0.17384 -0.622177,-0.42188 -0.792999,-0.5512 -0.240674,-0.18218 -0.3496,-0.23511 -0.483907,-0.23511 -0.187224,0 -0.287258,0.0673 -0.287258,0.19341 0,0.0437 0.417154,0.48805 0.927009,0.98745 l 0.92701,0.90799 h 1.74685 1.746852 l 0.305129,0.42475 0.305129,0.42472 0.987886,0.002 c 0.543338,0.001 0.97871,-0.0135 0.967494,-0.033 z m -3.355861,-4.00203 c 0.245861,-0.13594 0.447987,-0.43851 0.645897,-0.96682 0.301944,-0.80605 0.406614,-1.01485 0.639976,-1.27668 0.203954,-0.22883 0.960992,-0.8378 1.258,-1.01196 0.08178,-0.048 0.07183,-0.0588 -0.09896,-0.10786 -0.10444,-0.03 -0.423304,-0.0789 -0.70858,-0.10885 -0.986965,-0.1033 -2.000999,0.0824 -2.899439,0.53095 -0.705373,0.3522 -0.993624,0.65862 -1.138973,1.21078 -0.118522,0.45023 0.0048,1.00576 0.300432,1.353 l 0.101032,0.11869 0.0307,-0.10907 c 0.05836,-0.20741 0.347409,-0.76948 0.547922,-1.06549 0.110704,-0.16343 0.413954,-0.51604 0.673889,-0.78359 0.372216,-0.38311 0.486207,-0.47516 0.536624,-0.43332 0.0352,0.0292 0.06394,0.0665 0.06384,0.0829 -9.5e-5,0.0163 -0.209098,0.24343 -0.464448,0.50454 -0.540528,0.55271 -0.901422,1.07749 -1.082577,1.57418 -0.147925,0.40559 -0.144591,0.41363 0.226472,0.54568 0.377459,0.13433 1.07464,0.10524 1.3682,-0.0571 z"
       style="display:inline;fill:#ffffff;stroke-width:0.04747394"
       sodipodi:nodetypes="cccccccscsscccccccccsccsccccssccccccccccccccccssccccccccccccccccccccccccscccc" />
  </g>
</svg>
