<?xml version="1.0" encoding="UTF-8" standalone="no"?>
<!-- Created with Inkscape (http://www.inkscape.org/) -->

<svg
   xmlns:dc="http://purl.org/dc/elements/1.1/"
   xmlns:cc="http://creativecommons.org/ns#"
   xmlns:rdf="http://www.w3.org/1999/02/22-rdf-syntax-ns#"
   xmlns:svg="http://www.w3.org/2000/svg"
   xmlns="http://www.w3.org/2000/svg"
   xmlns:sodipodi="http://sodipodi.sourceforge.net/DTD/sodipodi-0.dtd"
   xmlns:inkscape="http://www.inkscape.org/namespaces/inkscape"
   width="49.999996"
   height="49.999996"
   viewBox="0 0 13.229166 13.229166"
   version="1.1"
   id="svg16055"
   sodipodi:docname="ngo_black.svg"
   inkscape:version="0.92.2pre0 650254f, 2017-08-06">
  <defs
     id="defs16049" />
  <sodipodi:namedview
     id="base"
     pagecolor="#ffffff"
     bordercolor="#666666"
     borderopacity="1.0"
     inkscape:pageopacity="0.0"
     inkscape:pageshadow="2"
     inkscape:zoom="0.98994949"
     inkscape:cx="-187.00488"
     inkscape:cy="-65.705954"
     inkscape:document-units="mm"
     inkscape:current-layer="layer1"
     showgrid="false"
     fit-margin-top="0"
     fit-margin-left="0"
     fit-margin-right="0"
     fit-margin-bottom="0"
     units="px"
     inkscape:window-width="1164"
     inkscape:window-height="862"
     inkscape:window-x="38"
     inkscape:window-y="65"
     inkscape:window-maximized="0" />
  <metadata
     id="metadata16052">
    <rdf:RDF>
      <cc:Work
         rdf:about="">
        <dc:format>image/svg+xml</dc:format>
        <dc:type
           rdf:resource="http://purl.org/dc/dcmitype/StillImage" />
        <dc:title></dc:title>
      </cc:Work>
    </rdf:RDF>
  </metadata>
  <g
     inkscape:label="Capa 1"
     inkscape:groupmode="layer"
     id="layer1"
     transform="translate(-68.224704,-158.8497)">
    <g
       style="display:inline"
       transform="matrix(0.11391502,0,0,0.11391502,69.13784,159.77423)"
       id="g6-274">
      <path
         inkscape:connector-curvature="0"
         d="m 85.4,56.3 c 4.9,-4.9 7.7,-11.5 7.7,-18.5 0,-7 -2.7,-13.6 -7.7,-18.5 -4.9,-4.9 -11.5,-7.7 -18.5,-7.7 -6.3,0 -12.2,2.2 -16.9,6.2 -4.7,-4 -10.6,-6.1 -16.8,-6.1 -7,0 -13.6,2.7 -18.5,7.7 -5,4.9 -7.7,11.5 -7.7,18.5 0,7 2.7,13.6 7.7,18.5 0.4,0.4 1,0.7 1.6,0.7 0.2,0 0.3,0 0.5,-0.1 0.4,1.4 1.1,2.6 2.1,3.6 1.6,1.6 3.6,2.4 5.8,2.4 0.1,0 0.1,0 0.2,0 -0.1,2.2 0.7,4.4 2.4,6 1.6,1.6 3.7,2.4 5.8,2.4 0.1,0 0.1,0 0.2,0 0,0.1 0,0.1 0,0.2 0,2.2 0.9,4.3 2.4,5.8 1.6,1.6 3.6,2.4 5.8,2.4 0,0 0,0 0,0 0,2.2 0.8,4.4 2.5,6 1.6,1.6 3.8,2.5 6,2.5 2.2,0 4.3,-0.8 6,-2.5 0.2,-0.2 0.3,-0.4 0.4,-0.6 L 85.2,56.3 c 0,0.1 0.1,0 0.2,0 z M 11.5,37.9 c 0,-5.8 2.2,-11.2 6.3,-15.3 4.1,-4.1 9.5,-6.3 15.3,-6.3 5.8,0 11.2,2.2 15.3,6.3 0,0 0,0 0,0 l 9.1,9.1 c 0,0 0,0 0,0 0,0 0,0 0,0 1.9,1.9 1.9,5 0,7 -1.9,1.9 -5,1.9 -7,0 0,0 0,0 0,0 0,0 0,0 0,0 L 49.9,38 c 0,0 0,0 0,0 0,0 0,0 0,0 l -8.4,-8.4 c 0,0 0,0 0,0 0,0 0,0 0,0 l -6.3,-6.3 c -0.9,-0.9 -2.3,-0.9 -3.2,0 -0.9,0.9 -0.9,2.3 0,3.2 l 4.7,4.7 -17.8,17.7 c -0.9,0.9 -1.6,2 -2,3.2 -3.5,-4 -5.4,-8.9 -5.4,-14.2 z M 22.1,57.4 C 21.4,56.7 21,55.8 21,54.8 c 0,-1 0.4,-1.9 1.1,-2.6 l 17.8,-17.8 5.2,5.2 -17.8,17.8 c -1.4,1.4 -3.8,1.4 -5.2,0 z m 25.2,25.3 c -1.2,-1.2 -1.4,-3.1 -0.7,-4.5 0.3,-0.2 0.6,-0.5 0.8,-0.7 L 66.8,58.1 c 0.9,-0.9 0.9,-2.3 0,-3.2 -0.9,-0.9 -2.3,-0.9 -3.2,0 L 45,73.4 c -0.3,0.1 -0.7,0.3 -1,0.6 -0.3,0.3 -0.5,0.6 -0.8,0.9 -1.4,0.7 -3.2,0.5 -4.4,-0.6 -0.7,-0.7 -1.1,-1.6 -1.1,-2.6 0,-1 0.4,-1.9 1.1,-2.6 L 58.2,49.7 c 0.9,-0.9 0.9,-2.3 0,-3.2 -0.9,-0.9 -2.3,-0.9 -3.2,0 L 35.8,65.8 c -1.4,1.4 -3.8,1.4 -5.2,0 -1.4,-1.4 -1.4,-3.8 0,-5.2 L 48.5,42.7 c 1.7,1.3 3.7,1.9 5.7,1.9 2.4,0 4.8,-0.9 6.7,-2.8 3.7,-3.7 3.7,-9.7 0,-13.4 0,0 0,0 0,0 0,0 0,0 0,0 L 53.3,21 c 3.8,-3.1 8.6,-4.8 13.6,-4.8 5.8,0 11.2,2.2 15.3,6.3 4.1,4.1 6.3,9.5 6.3,15.3 0,5.7 -2.2,11.1 -6.2,15.2 0,0 -0.1,0.1 -0.1,0.1 L 52.6,82.7 c -0.1,0.1 -0.2,0.3 -0.3,0.4 -1.5,1.1 -3.7,0.9 -5,-0.4 z"
         id="path4-252" />
    </g>
  </g>
</svg>
