<?xml version="1.0" encoding="UTF-8" standalone="no"?>
<!-- Created with Inkscape (http://www.inkscape.org/) -->

<svg
   xmlns:dc="http://purl.org/dc/elements/1.1/"
   xmlns:cc="http://creativecommons.org/ns#"
   xmlns:rdf="http://www.w3.org/1999/02/22-rdf-syntax-ns#"
   xmlns:svg="http://www.w3.org/2000/svg"
   xmlns="http://www.w3.org/2000/svg"
   xmlns:sodipodi="http://sodipodi.sourceforge.net/DTD/sodipodi-0.dtd"
   xmlns:inkscape="http://www.inkscape.org/namespaces/inkscape"
   width="49.999996"
   height="49.999996"
   viewBox="0 0 13.229166 13.229166"
   version="1.1"
   id="svg16055"
   sodipodi:docname="paper_white.svg"
   inkscape:version="0.92.2pre0 650254f, 2017-08-06">
  <defs
     id="defs16049" />
  <sodipodi:namedview
     id="base"
     pagecolor="#ffffff"
     bordercolor="#666666"
     borderopacity="1.0"
     inkscape:pageopacity="0.0"
     inkscape:pageshadow="2"
     inkscape:zoom="0.98994949"
     inkscape:cx="-227.41099"
     inkscape:cy="-186.92426"
     inkscape:document-units="mm"
     inkscape:current-layer="layer1"
     showgrid="false"
     fit-margin-top="0"
     fit-margin-left="0"
     fit-margin-right="0"
     fit-margin-bottom="0"
     units="px"
     inkscape:window-width="1164"
     inkscape:window-height="862"
     inkscape:window-x="62"
     inkscape:window-y="274"
     inkscape:window-maximized="0" />
  <metadata
     id="metadata16052">
    <rdf:RDF>
      <cc:Work
         rdf:about="">
        <dc:format>image/svg+xml</dc:format>
        <dc:type
           rdf:resource="http://purl.org/dc/dcmitype/StillImage" />
        <dc:title></dc:title>
      </cc:Work>
    </rdf:RDF>
  </metadata>
  <g
     inkscape:label="Capa 1"
     inkscape:groupmode="layer"
     id="layer1"
     transform="translate(-68.224704,-158.8497)">
    <g
       style="display:inline;fill:#ffffff;stroke:#000000;stroke-width:0.71097261;stroke-miterlimit:4;stroke-dasharray:none;stroke-opacity:1"
       id="g11559"
       transform="matrix(0.11252191,0,0,0.11252191,69.213106,52.675743)">
      <g
         style="fill:#ffffff;stroke:#000000;stroke-width:0.71097261;stroke-miterlimit:4;stroke-dasharray:none;stroke-opacity:1"
         id="g11557"
         transform="translate(1.0057325,964.85273)">
        <path
           id="path11555"
           style="fill:#ffffff;fill-opacity:1;fill-rule:nonzero;stroke:#ffffff;stroke-width:0.71097261;stroke-miterlimit:4;stroke-dasharray:none;stroke-opacity:1"
           d="M 58.110236,0.21259842 1.1338583,27.212598 C 0.46062992,27.531496 0,28.27559 0,29.019685 c 0,0.779527 0.49606299,1.488189 1.1692913,1.807086 L 23.173228,40.85433 c 0.212599,0.1063 0.496063,0.141733 0.744095,0.177166 l 30.968504,0.992126 c 0.35433,0 0.673228,-0.07087 0.956692,-0.212599 l 40.96063,-20.019685 c 0.673228,-0.318897 1.133858,-1.027559 1.133858,-1.771653 0,-0.744095 -0.46063,-1.488189 -1.133858,-1.807087 L 59.846456,0.21259842 C 59.102362,-0.10629921 58.783464,0 58.110236,0.21259842 Z M 58.96063,4.2165354 91.381889,20.019685 54.496063,37.984252 c -4.925197,-2.480315 -10.913386,-8.433071 -13.96063,-12.22441 -1.204725,-1.027559 -2.055118,-0.744094 -3.11811,0 -3.826772,4.818898 -7.476378,8.468504 -12.933071,11.267717 L 6.7322834,28.948819 Z M 39.011811,29.940945 c 2.515748,2.834645 5.244094,5.385826 8.07874,7.795275 L 31.535433,37.240157 c 2.799213,-2.161417 5.173228,-4.606299 7.476378,-7.299212 z M 95.066929,31.216535 39.047244,58.748031 2.9409449,39.259842 C 2.019685,38.728346 0.74409448,39.11811 0.24803149,40.03937 -0.28346457,40.996063 0.10629921,42.271653 1.0275591,42.767716 L 38.019685,62.787401 c 0.566929,0.283465 1.27559,0.318898 1.84252,0.03543 L 96.838582,34.795275 c 0.850394,-0.389764 1.311024,-1.381889 1.098425,-2.232283 -0.779527,-1.488189 -1.559055,-1.736221 -2.870078,-1.346457 z m 0,12.011811 L 39.047244,70.759842 2.9409449,51.23622 C 2.019685,50.740157 0.74409448,51.129921 0.24803149,52.051181 -0.28346457,52.97244 0.10629921,54.283464 1.0275591,54.779527 L 38.019685,74.763779 c 0.566929,0.318897 1.27559,0.318897 1.84252,0.03543 L 96.838582,46.807086 c 0.850394,-0.389764 1.311024,-1.38189 1.098425,-2.267716 -0.389763,-1.027559 -1.559055,-1.736221 -2.870078,-1.311024 z"
           inkscape:connector-curvature="0" />
      </g>
    </g>
  </g>
</svg>
