<?xml version="1.0" encoding="UTF-8" standalone="no"?>
<!-- Created with Inkscape (http://www.inkscape.org/) -->

<svg
   xmlns:dc="http://purl.org/dc/elements/1.1/"
   xmlns:cc="http://creativecommons.org/ns#"
   xmlns:rdf="http://www.w3.org/1999/02/22-rdf-syntax-ns#"
   xmlns:svg="http://www.w3.org/2000/svg"
   xmlns="http://www.w3.org/2000/svg"
   xmlns:sodipodi="http://sodipodi.sourceforge.net/DTD/sodipodi-0.dtd"
   xmlns:inkscape="http://www.inkscape.org/namespaces/inkscape"
   width="49.999996"
   height="49.999996"
   viewBox="0 0 13.229166 13.229166"
   version="1.1"
   id="svg16055"
   sodipodi:docname="plumbing_black.svg"
   inkscape:version="0.92.2pre0 650254f, 2017-08-06">
  <defs
     id="defs16049" />
  <sodipodi:namedview
     id="base"
     pagecolor="#ffffff"
     bordercolor="#666666"
     borderopacity="1.0"
     inkscape:pageopacity="0.0"
     inkscape:pageshadow="2"
     inkscape:zoom="0.49497475"
     inkscape:cx="-151.26007"
     inkscape:cy="-242.52694"
     inkscape:document-units="mm"
     inkscape:current-layer="layer1"
     showgrid="false"
     fit-margin-top="0"
     fit-margin-left="0"
     fit-margin-right="0"
     fit-margin-bottom="0"
     units="px"
     inkscape:window-width="1164"
     inkscape:window-height="862"
     inkscape:window-x="62"
     inkscape:window-y="274"
     inkscape:window-maximized="0" />
  <metadata
     id="metadata16052">
    <rdf:RDF>
      <cc:Work
         rdf:about="">
        <dc:format>image/svg+xml</dc:format>
        <dc:type
           rdf:resource="http://purl.org/dc/dcmitype/StillImage" />
        <dc:title></dc:title>
      </cc:Work>
    </rdf:RDF>
  </metadata>
  <g
     inkscape:label="Capa 1"
     inkscape:groupmode="layer"
     id="layer1"
     transform="translate(-68.224704,-158.8497)">
    <g
       style="display:inline"
       transform="matrix(0.15430778,0,0,0.15430778,67.008167,157.74889)"
       id="g6-59">
      <path
         inkscape:connector-curvature="0"
         d="M 20.17,54.471"
         id="path2-17" />
      <path
         inkscape:connector-curvature="0"
         d="m 78.72,29.78 c 1.44,0 2.61,-1.17 2.61,-2.61 v -3.5 c 0,-1.43 -1.17,-2.6 -2.61,-2.6 H 64.03 c -1.44,0 -2.61,1.17 -2.61,2.6 v 3.5 c 0,1.44 1.17,2.61 2.61,2.61 h 1.2 v 20.19 h -1.2 c -1.44,0 -2.61,1.17 -2.61,2.61 v 3.5 c 0,1.43 1.17,2.6 2.61,2.6 h 1.21 c -0.01,0.04 -0.01,0.09 -0.01,0.13 0,4.31 -3.5,7.81 -7.81,7.81 -4.31,0 -7.81,-3.5 -7.81,-7.81 0,-0.04 0,-0.09 -0.01,-0.13 h 1.37 c 1.44,0 2.61,-1.17 2.61,-2.6 v -3.5 c 0,-1.44 -1.17,-2.61 -2.61,-2.61 H 49.55 C 48.82,40.06 40.89,32.14 30.98,31.41 v -1.47 c 0,-1.44 -1.17,-2.61 -2.6,-2.61 h -3.5 c -1.44,0 -2.61,1.17 -2.61,2.61 v 14.7 c 0,1.44 1.17,2.61 2.61,2.61 h 3.5 c 1.43,0 2.6,-1.17 2.6,-2.61 v -0.83 c 3.1,0.6 5.56,3.05 6.16,6.16 h -0.86 c -1.44,0 -2.61,1.17 -2.61,2.61 v 3.5 c 0,1.43 1.17,2.6 2.61,2.6 h 1.02 c -0.01,0.04 -0.01,0.09 -0.01,0.13 0,11.1 9.03,20.12 20.13,20.12 11.1,0 20.12,-9.02 20.12,-20.12 0,-0.04 0,-0.09 -0.01,-0.13 h 1.19 c 1.44,0 2.61,-1.17 2.61,-2.6 v -3.5 c 0,-1.44 -1.17,-2.61 -2.61,-2.61 H 77.54 V 29.78 Z M 27.98,44.25 H 25.27 V 30.33 h 2.71 z M 64.42,26.78 v -2.71 h 13.91 v 2.71 z M 30.98,40.76 v -6.34 c 8.26,0.71 14.85,7.3 15.56,15.55 h -6.35 c -0.67,-4.76 -4.45,-8.54 -9.21,-9.21 z m 5.69,14.92 v -2.71 h 13.91 v 2.71 z m 37.87,3.13 c 0,9.44 -7.68,17.12 -17.12,17.12 -9.44,0 -17.13,-7.68 -17.13,-17.12 0,-0.04 0,-0.09 -0.01,-0.13 h 6.34 c -0.01,0.04 -0.01,0.09 -0.01,0.13 0,5.96 4.85,10.81 10.81,10.81 5.96,0 10.81,-4.85 10.81,-10.81 0,-0.04 0,-0.09 -0.01,-0.13 h 6.33 c -0.01,0.04 -0.01,0.09 -0.01,0.13 z m 3.79,-5.84 v 2.71 H 64.42 v -2.71 z m -3.79,-3 H 68.23 V 29.78 h 6.31 z"
         id="path4-74" />
    </g>
  </g>
</svg>
