<?xml version="1.0" encoding="UTF-8" standalone="no"?>
<!-- Created with Inkscape (http://www.inkscape.org/) -->

<svg
   xmlns:dc="http://purl.org/dc/elements/1.1/"
   xmlns:cc="http://creativecommons.org/ns#"
   xmlns:rdf="http://www.w3.org/1999/02/22-rdf-syntax-ns#"
   xmlns:svg="http://www.w3.org/2000/svg"
   xmlns="http://www.w3.org/2000/svg"
   xmlns:sodipodi="http://sodipodi.sourceforge.net/DTD/sodipodi-0.dtd"
   xmlns:inkscape="http://www.inkscape.org/namespaces/inkscape"
   width="49.999996"
   height="49.999996"
   viewBox="0 0 13.229166 13.229166"
   version="1.1"
   id="svg16055"
   sodipodi:docname="question_white.svg"
   inkscape:version="0.92.2pre0 650254f, 2017-08-06">
  <defs
     id="defs16049" />
  <sodipodi:namedview
     id="base"
     pagecolor="#ffffff"
     bordercolor="#666666"
     borderopacity="1.0"
     inkscape:pageopacity="0.0"
     inkscape:pageshadow="2"
     inkscape:zoom="3.959798"
     inkscape:cx="17.530145"
     inkscape:cy="-21.206329"
     inkscape:document-units="mm"
     inkscape:current-layer="layer1"
     showgrid="false"
     fit-margin-top="0"
     fit-margin-left="0"
     fit-margin-right="0"
     fit-margin-bottom="0"
     units="px"
     inkscape:window-width="1164"
     inkscape:window-height="862"
     inkscape:window-x="62"
     inkscape:window-y="181"
     inkscape:window-maximized="0" />
  <metadata
     id="metadata16052">
    <rdf:RDF>
      <cc:Work
         rdf:about="">
        <dc:format>image/svg+xml</dc:format>
        <dc:type
           rdf:resource="http://purl.org/dc/dcmitype/StillImage" />
        <dc:title></dc:title>
      </cc:Work>
    </rdf:RDF>
  </metadata>
  <g
     inkscape:label="Capa 1"
     inkscape:groupmode="layer"
     id="layer1"
     transform="translate(-68.224704,-158.8497)">
    <g
       transform="matrix(0.86263094,0,0,0.86263094,-182.89489,-203.51895)"
       id="g2402"
       style="font-style:normal;font-weight:normal;font-size:15.53539658px;line-height:1.25;font-family:sans-serif;letter-spacing:0px;word-spacing:0px;display:inline;fill:none;fill-opacity:1;stroke:#000000;stroke-width:0.59500003;stroke-miterlimit:4;stroke-dasharray:none;stroke-opacity:1"
       aria-label="?">
      <path
         inkscape:connector-curvature="0"
         id="path2400"
         style="font-style:normal;font-variant:normal;font-weight:800;font-stretch:normal;font-family:'Open Sans';-inkscape-font-specification:'Open Sans Ultra-Bold';fill:none;stroke:#ffffff;stroke-width:0.59500003;stroke-miterlimit:4;stroke-dasharray:none;stroke-opacity:1"
         d="m 297.28156,429.35745 v -0.65237 q 0,-0.74339 0.30342,-1.25163 0.30343,-0.51582 1.07716,-1.00131 0.61444,-0.38686 0.87994,-0.69788 0.27308,-0.31101 0.27308,-0.71305 0,-0.31859 -0.28825,-0.50065 -0.28826,-0.18964 -0.75098,-0.18964 -1.14543,0 -2.67773,0.81166 l -1.05441,-2.06329 q 1.88883,-1.07716 3.94454,-1.07716 1.6916,0 2.65497,0.74339 0.96338,0.74339 0.96338,2.02537 0,0.91786 -0.43238,1.59298 -0.4248,0.66754 -1.36542,1.26681 -0.79649,0.51582 -1.0013,0.75856 -0.19723,0.23515 -0.19723,0.56134 v 0.38687 z m -0.32619,2.65497 q 0,-0.69788 0.40204,-1.07716 0.40963,-0.37928 1.19854,-0.37928 0.75856,0 1.1606,0.38686 0.40962,0.37929 0.40962,1.06958 0,0.69029 -0.42479,1.06958 -0.41721,0.37928 -1.14543,0.37928 -0.75098,0 -1.17578,-0.3717 -0.4248,-0.37928 -0.4248,-1.07716 z" />
    </g>
  </g>
</svg>
