<?xml version="1.0" encoding="UTF-8" standalone="no"?>
<!-- Created with Inkscape (http://www.inkscape.org/) -->

<svg
   xmlns:dc="http://purl.org/dc/elements/1.1/"
   xmlns:cc="http://creativecommons.org/ns#"
   xmlns:rdf="http://www.w3.org/1999/02/22-rdf-syntax-ns#"
   xmlns:svg="http://www.w3.org/2000/svg"
   xmlns="http://www.w3.org/2000/svg"
   xmlns:sodipodi="http://sodipodi.sourceforge.net/DTD/sodipodi-0.dtd"
   xmlns:inkscape="http://www.inkscape.org/namespaces/inkscape"
   width="49.999996"
   height="49.999996"
   viewBox="0 0 13.229166 13.229166"
   version="1.1"
   id="svg16055"
   sodipodi:docname="science_white.svg"
   inkscape:version="0.92.2pre0 650254f, 2017-08-06">
  <defs
     id="defs16049" />
  <sodipodi:namedview
     id="base"
     pagecolor="#ffffff"
     bordercolor="#666666"
     borderopacity="1.0"
     inkscape:pageopacity="0.0"
     inkscape:pageshadow="2"
     inkscape:zoom="0.98994949"
     inkscape:cx="-227.41099"
     inkscape:cy="-186.92426"
     inkscape:document-units="mm"
     inkscape:current-layer="layer1"
     showgrid="false"
     fit-margin-top="0"
     fit-margin-left="0"
     fit-margin-right="0"
     fit-margin-bottom="0"
     units="px"
     inkscape:window-width="1164"
     inkscape:window-height="862"
     inkscape:window-x="62"
     inkscape:window-y="274"
     inkscape:window-maximized="0" />
  <metadata
     id="metadata16052">
    <rdf:RDF>
      <cc:Work
         rdf:about="">
        <dc:format>image/svg+xml</dc:format>
        <dc:type
           rdf:resource="http://purl.org/dc/dcmitype/StillImage" />
        <dc:title></dc:title>
      </cc:Work>
    </rdf:RDF>
  </metadata>
  <g
     inkscape:label="Capa 1"
     inkscape:groupmode="layer"
     id="layer1"
     transform="translate(-68.224704,-158.8497)">
    <g
       transform="matrix(1.2557439,0,0,1.2557439,-225.5102,103.50957)"
       id="g12665"
       style="display:inline;fill:#ffffff">
      <path
         style="fill:#ffffff;stroke:#ffffff;stroke-width:0.025;stroke-miterlimit:4;stroke-dasharray:none;stroke-opacity:1"
         id="path12657"
         d="m 239.47155,46.293315 c 0.37525,0 0.67544,-0.3002 0.67544,-0.675447 0,-0.375248 -0.30019,-0.675446 -0.67544,-0.675446 -0.36274,0 -0.66294,0.300198 -0.67544,0.675446 0,0.375247 0.3002,0.675447 0.67544,0.675447 z m 0,-1.100728 c 0.23766,0 0.42528,0.187624 0.42528,0.425281 0,0.237658 -0.18762,0.425281 -0.42528,0.425281 -0.23766,0 -0.42528,-0.187623 -0.42528,-0.425281 0.013,-0.237657 0.18762,-0.425281 0.42528,-0.425281 z"
         inkscape:connector-curvature="0" />
      <path
         style="fill:#ffffff;stroke:#ffffff;stroke-width:0.05;stroke-miterlimit:4;stroke-dasharray:none;stroke-opacity:1"
         id="path12659"
         d="m 238.45494,47.220441 c 0.28819,0 0.51873,-0.230548 0.51873,-0.518735 0,-0.288186 -0.23054,-0.518735 -0.51873,-0.518735 -0.28819,0 -0.51874,0.230549 -0.51874,0.518735 0,0.288187 0.23055,0.518735 0.51874,0.518735 z m 0,-0.845346 c 0.18252,0 0.32661,0.144094 0.32661,0.326611 0,0.182518 -0.14409,0.326611 -0.32661,0.326611 -0.18253,0 -0.32662,-0.144093 -0.32662,-0.326611 0,-0.182517 0.14409,-0.326611 0.32662,-0.326611 z"
         inkscape:connector-curvature="0" />
      <path
         style="fill:#ffffff;stroke:#ffffff;stroke-width:0.1;stroke-miterlimit:4;stroke-dasharray:none;stroke-opacity:1"
         id="path12661"
         d="m 239.40605,47.677565 c 0.19475,0 0.35055,-0.155804 0.35055,-0.350559 0,-0.194756 -0.1558,-0.350559 -0.35055,-0.350559 -0.19476,0 -0.35057,0.155803 -0.35057,0.350559 0,0.194755 0.1623,0.350559 0.35057,0.350559 z m 0,-0.571281 c 0.12334,0 0.22071,0.09738 0.22071,0.220722 0,0.123344 -0.0974,0.220722 -0.22071,0.220722 -0.12336,0 -0.22073,-0.09738 -0.22073,-0.220722 0,-0.123345 0.10387,-0.220722 0.22073,-0.220722 z"
         inkscape:connector-curvature="0" />
      <path
         style="fill:#ffffff;stroke:#ffffff;stroke-width:0.19271445;stroke-miterlimit:4;stroke-dasharray:none;stroke-opacity:1"
         id="path12663"
         d="m 241.48314,52.870213 c -0.10143,-0.123968 -0.29302,-0.338095 -0.50714,-0.586032 -0.42826,-0.484604 -1.23969,-1.397463 -1.26223,-1.566511 v -1.701748 c 0.0113,-0.01127 0.0451,-0.02254 0.0676,-0.03381 0.10143,-0.04508 0.28175,-0.123968 0.28175,-0.405715 0,-0.338095 -0.27048,-0.450794 -0.4508,-0.450794 h -0.86778 c -0.18031,0 -0.45079,0.123969 -0.45079,0.450794 0,0.270477 0.18032,0.349366 0.28175,0.405715 0.0225,0.01127 0.0563,0.02254 0.0563,0.02254 v 1.713018 c -0.0338,0.180318 -0.83397,1.081907 -1.26223,1.566511 -0.2254,0.247937 -0.40571,0.462064 -0.50714,0.586032 -0.12397,0.157778 -0.10143,0.281747 -0.0676,0.349366 0.10143,0.202857 0.46206,0.428255 2.4681,0.428255 1.87079,0 2.19762,-0.247937 2.28778,-0.439525 0.0338,-0.06762 0.0564,-0.191588 -0.0676,-0.338096 z m -0.13524,0.247937 c -0.0338,0.06762 -0.28174,0.304286 -2.08492,0.304286 -1.91588,0 -2.22016,-0.214127 -2.26524,-0.304286 -0.0113,-0.03381 0.0113,-0.07889 0.0451,-0.112698 0.10142,-0.123969 0.28174,-0.338096 0.50714,-0.586033 0.90159,-1.025557 1.3073,-1.510161 1.3073,-1.713018 v -1.701749 c 0,-0.146508 -0.1127,-0.191588 -0.19158,-0.236667 -0.0902,-0.04508 -0.14651,-0.06762 -0.14651,-0.191588 0,-0.214127 0.18032,-0.225397 0.22539,-0.225397 h 0.85651 c 0.0338,0 0.2254,0.01127 0.2254,0.225397 0,0.123969 -0.0564,0.157778 -0.14651,0.191588 -0.0789,0.03381 -0.19158,0.09016 -0.19158,0.236667 v 1.713018 c 0,0.191588 0.40571,0.687462 1.31857,1.713019 0.21413,0.247937 0.40571,0.462064 0.50714,0.574763 0.0338,0.04508 0.0451,0.09016 0.0338,0.112698 z"
         inkscape:connector-curvature="0" />
    </g>
  </g>
</svg>
