<?xml version="1.0" encoding="UTF-8" standalone="no"?>
<!-- Created with Inkscape (http://www.inkscape.org/) -->

<svg
   xmlns:dc="http://purl.org/dc/elements/1.1/"
   xmlns:cc="http://creativecommons.org/ns#"
   xmlns:rdf="http://www.w3.org/1999/02/22-rdf-syntax-ns#"
   xmlns:svg="http://www.w3.org/2000/svg"
   xmlns="http://www.w3.org/2000/svg"
   xmlns:sodipodi="http://sodipodi.sourceforge.net/DTD/sodipodi-0.dtd"
   xmlns:inkscape="http://www.inkscape.org/namespaces/inkscape"
   width="49.999996"
   height="49.999996"
   viewBox="0 0 13.229166 13.229166"
   version="1.1"
   id="svg16055"
   sodipodi:docname="sharedcar_white.svg"
   inkscape:version="0.92.2pre0 650254f, 2017-08-06">
  <defs
     id="defs16049" />
  <sodipodi:namedview
     id="base"
     pagecolor="#ffffff"
     bordercolor="#666666"
     borderopacity="1.0"
     inkscape:pageopacity="0.0"
     inkscape:pageshadow="2"
     inkscape:zoom="1.979899"
     inkscape:cx="-42.208415"
     inkscape:cy="-35.94502"
     inkscape:document-units="mm"
     inkscape:current-layer="layer1"
     showgrid="false"
     fit-margin-top="0"
     fit-margin-left="0"
     fit-margin-right="0"
     fit-margin-bottom="0"
     units="px"
     inkscape:window-width="1164"
     inkscape:window-height="862"
     inkscape:window-x="62"
     inkscape:window-y="274"
     inkscape:window-maximized="0" />
  <metadata
     id="metadata16052">
    <rdf:RDF>
      <cc:Work
         rdf:about="">
        <dc:format>image/svg+xml</dc:format>
        <dc:type
           rdf:resource="http://purl.org/dc/dcmitype/StillImage" />
        <dc:title></dc:title>
      </cc:Work>
    </rdf:RDF>
  </metadata>
  <g
     inkscape:label="Capa 1"
     inkscape:groupmode="layer"
     id="layer1"
     transform="translate(-68.224704,-158.8497)">
    <g
       id="g26294"
       transform="translate(-223.62808,-212.95003)"
       style="display:inline;fill:#ffffff">
      <g
         transform="matrix(0.04281875,0,0,0.04281875,296.37724,377.11412)"
         id="g26286"
         style="fill:#ffffff">
        <path
           inkscape:connector-curvature="0"
           d="M 64.5,38 C 70.9,38 76,32.9 76,26.5 76,20.1 70.9,15 64.5,15 58.1,15 53,20.1 53,26.5 c 0,1.1 0.2,2.1 0.4,3.1 l -17,11.2 C 34.5,39.3 32.1,38.5 29.5,38.5 23.1,38.5 18,43.6 18,50 c 0,6.4 5.1,11.5 11.5,11.5 2.6,0 5,-0.9 6.9,-2.3 l 17,11.2 c -0.3,1 -0.5,2.1 -0.5,3.2 C 53,79.9 58.1,85 64.5,85 70.9,85 76,79.9 76,73.5 76,67.1 70.9,62 64.5,62 c -3.1,0 -5.9,1.2 -7.9,3.2 L 40.1,54.4 C 40.7,53 41,51.6 41,50 41,48.4 40.7,46.9 40.1,45.6 L 56.5,34.8 c 2.1,2 4.9,3.2 8,3.2 z"
           id="path26284"
           style="fill:#ffffff" />
      </g>
      <g
         transform="matrix(0.11986651,0,0,0.11986651,292.34818,372.15787)"
         id="g26292"
         style="fill:#ffffff">
        <path
           inkscape:connector-curvature="0"
           d="M 89.8,53.8 84.7,52 77.8,42.9 c -2,-2.6 -5.1,-4.1 -8.4,-4.1 H 42.1 c -2.8,0 -5.5,1.1 -7.4,3.1 L 22,54.7 15.1,55.1 C 9.6,55.5 5.3,60 5.3,65.6 V 72 c 0,3.6 2.9,6.5 6.5,6.5 h 4.7 c 1.4,4.3 5.4,7.4 10.1,7.4 4.8,0 8.8,-3.1 10.1,-7.5 h 29.7 c 1.3,4.3 5.4,7.5 10.2,7.5 4.8,0 8.8,-3.1 10.1,-7.5 h 3.6 c 3.6,0 6.5,-2.9 6.5,-6.5 V 63.6 C 96.7,59.3 94,55.3 89.8,53.8 Z M 26.5,80.9 c -3.1,0 -5.6,-2.5 -5.6,-5.6 0,-3.1 2.5,-5.6 5.6,-5.6 3.1,0 5.6,2.5 5.6,5.6 0.1,3.1 -2.4,5.6 -5.6,5.6 z m 50,0 c -3.1,0 -5.6,-2.5 -5.6,-5.6 0,-3.1 2.5,-5.6 5.6,-5.6 3.1,0 5.6,2.5 5.6,5.6 0,3.1 -2.5,5.6 -5.6,5.6 z M 91.7,72 c 0,0.8 -0.7,1.5 -1.5,1.5 H 87 c -0.9,-5 -5.2,-8.8 -10.5,-8.8 -5.2,0 -9.6,3.8 -10.5,8.8 H 37 c -0.9,-5 -5.2,-8.8 -10.5,-8.8 -5.3,0 -9.6,3.8 -10.5,8.8 h -4.3 c -0.8,0 -1.5,-0.7 -1.5,-1.5 v -6.4 c 0,-2.9 2.3,-5.3 5.1,-5.5 l 7.8,-0.5 c 0.6,0 1.2,-0.3 1.6,-0.7 L 38.1,45.5 c 1,-1 2.4,-1.6 3.9,-1.6 h 27.3 c 1.7,0 3.3,0.8 4.4,2.2 l 7.4,9.6 c 0.3,0.4 0.7,0.7 1.1,0.8 l 5.8,2.1 c 2.2,0.8 3.6,2.9 3.6,5.2 V 72 Z"
           id="path26288"
           style="fill:#ffffff" />
        <path
           inkscape:connector-curvature="0"
           d="m 77.7,18.5 c -0.1,0.1 -0.1,0.1 0,0 0,0.1 0.1,0.2 0.1,0.4 0,0.2 0,-0.5 -0.1,-0.4 z"
           id="path26290"
           style="fill:#ffffff" />
      </g>
    </g>
  </g>
</svg>
