<?xml version="1.0" encoding="UTF-8" standalone="no"?>
<!-- Created with Inkscape (http://www.inkscape.org/) -->

<svg
   xmlns:dc="http://purl.org/dc/elements/1.1/"
   xmlns:cc="http://creativecommons.org/ns#"
   xmlns:rdf="http://www.w3.org/1999/02/22-rdf-syntax-ns#"
   xmlns:svg="http://www.w3.org/2000/svg"
   xmlns="http://www.w3.org/2000/svg"
   xmlns:sodipodi="http://sodipodi.sourceforge.net/DTD/sodipodi-0.dtd"
   xmlns:inkscape="http://www.inkscape.org/namespaces/inkscape"
   width="49.999996"
   height="49.999996"
   viewBox="0 0 13.229166 13.229166"
   version="1.1"
   id="svg16055"
   sodipodi:docname="socialcurrency_white.svg"
   inkscape:version="0.92.2pre0 650254f, 2017-08-06">
  <defs
     id="defs16049" />
  <sodipodi:namedview
     id="base"
     pagecolor="#ffffff"
     bordercolor="#666666"
     borderopacity="1.0"
     inkscape:pageopacity="0.0"
     inkscape:pageshadow="2"
     inkscape:zoom="0.98994949"
     inkscape:cx="-227.41099"
     inkscape:cy="-186.92426"
     inkscape:document-units="mm"
     inkscape:current-layer="layer1"
     showgrid="false"
     fit-margin-top="0"
     fit-margin-left="0"
     fit-margin-right="0"
     fit-margin-bottom="0"
     units="px"
     inkscape:window-width="1164"
     inkscape:window-height="862"
     inkscape:window-x="62"
     inkscape:window-y="274"
     inkscape:window-maximized="0" />
  <metadata
     id="metadata16052">
    <rdf:RDF>
      <cc:Work
         rdf:about="">
        <dc:format>image/svg+xml</dc:format>
        <dc:type
           rdf:resource="http://purl.org/dc/dcmitype/StillImage" />
        <dc:title></dc:title>
      </cc:Work>
    </rdf:RDF>
  </metadata>
  <g
     inkscape:label="Capa 1"
     inkscape:groupmode="layer"
     id="layer1"
     transform="translate(-68.224704,-158.8497)">
    <g
       transform="translate(40.762356,-129.47109)"
       id="g12415"
       style="display:inline;fill:#ffffff;stroke:#ffffff;stroke-opacity:1">
      <path
         inkscape:connector-curvature="0"
         d="m 38.365506,290.8829 c -0.130492,-0.0542 -0.273787,-0.0256 -0.373656,0.0744 l -0.444291,0.44418 c -0.801942,-0.6085 -1.569314,-0.83652 -2.789939,-0.83652 -0.06028,0 -0.109153,0.0489 -0.10926,0.10906 l -0.002,0.94054 c -1.06e-4,0.03 0.01217,0.0587 0.03393,0.0793 0.02166,0.0207 0.04961,0.0323 0.08088,0.0302 0.695031,-0.0358 1.359867,0.14883 1.931021,0.53306 l -0.537651,0.53755 c -0.09987,0.0999 -0.128357,0.24306 -0.07426,0.37365 0.0541,0.1306 0.175412,0.21169 0.316785,0.21169 h 2.070902 c 0.06038,0 0.109259,-0.0489 0.109259,-0.10926 v -2.0709 c 0,-0.14138 -0.08109,-0.2628 -0.211689,-0.31678 z m -0.0068,2.27844 h -1.961644 c -0.07714,0 -0.107445,-0.0588 -0.114914,-0.0768 -0.0075,-0.018 -0.02763,-0.0809 0.02688,-0.13551 l 0.629624,-0.62951 c 0.02252,-0.0225 0.03415,-0.054 0.03169,-0.0858 -0.0025,-0.0318 -0.01867,-0.061 -0.0445,-0.0798 -0.586626,-0.42892 -1.273761,-0.65289 -1.997174,-0.65289 -0.02112,0 -0.04236,2.2e-4 -0.06359,4.1e-4 l 0.0015,-0.71755 c 1.140603,0.0138 1.859747,0.2484 2.622638,0.84847 0.04343,0.0342 0.105525,0.0305 0.144788,-0.009 l 0.512257,-0.51215 c 0.05484,-0.0547 0.117688,-0.0344 0.135507,-0.0271 0.01804,0.007 0.07682,0.0378 0.07682,0.11492 z"
         id="path12409"
         style="fill:#ffffff;stroke:#ffffff;stroke-width:0.30899999;stroke-miterlimit:4;stroke-dasharray:none;stroke-opacity:1" />
      <path
         inkscape:connector-curvature="0"
         d="m 38.467936,296.49074 h -2.070902 c -0.141374,0 -0.26269,0.0811 -0.316786,0.21169 -0.0541,0.13059 -0.02561,0.27378 0.07427,0.37366 l 0.537651,0.53754 c -0.571048,0.38432 -1.235243,0.56913 -1.93102,0.53307 -0.03148,-8.9e-4 -0.05922,0.01 -0.08088,0.0302 -0.02177,0.0206 -0.03403,0.0493 -0.03394,0.0793 l 0.002,0.94056 c 1.07e-4,0.0602 0.04898,0.10904 0.109259,0.10904 1.220626,0 1.987996,-0.22802 2.789939,-0.83652 l 0.44429,0.44419 c 0.09987,0.10008 0.243165,0.12857 0.373657,0.0744 0.130598,-0.054 0.211689,-0.17541 0.211689,-0.31678 v -2.07092 c 0,-0.0604 -0.04887,-0.10925 -0.109259,-0.10925 z m -0.109259,2.18016 c 0,0.0772 -0.0588,0.10745 -0.07681,0.11491 -0.01804,0.007 -0.08109,0.0274 -0.135507,-0.0271 l -0.512257,-0.51215 c -0.03916,-0.0391 -0.101257,-0.0426 -0.14479,-0.009 -0.762891,0.60007 -1.482035,0.8347 -2.622636,0.84846 l -0.0015,-0.71755 c 0.746673,0.0107 1.456962,-0.21104 2.060766,-0.65234 0.02582,-0.0189 0.04204,-0.048 0.0445,-0.0798 0.0025,-0.0318 -0.0092,-0.0632 -0.03169,-0.0857 l -0.629625,-0.62951 c -0.05452,-0.0545 -0.03436,-0.11748 -0.02688,-0.13551 0.0075,-0.0181 0.03777,-0.0768 0.114914,-0.0768 h 1.961652 z"
         id="path12411"
         style="fill:#ffffff;stroke:#ffffff;stroke-width:0.30899999;stroke-miterlimit:4;stroke-dasharray:none;stroke-opacity:1" />
      <path
         inkscape:connector-curvature="0"
         d="m 33.946985,290.56494 c -2.409774,0 -4.37035,1.96058 -4.37035,4.37036 0,2.40977 1.960576,4.37034 4.37035,4.37034 0.06039,0 0.109259,-0.0489 0.109259,-0.10925 v -8.52218 c 0,-0.0603 -0.04887,-0.10927 -0.109259,-0.10927 z m -2.105578,4.35905 c 0,-0.51369 0.08654,-0.98482 0.223759,-1.4113 h 1.772561 v 2.78504 h -1.786392 c -0.129331,-0.41812 -0.209928,-0.87706 -0.209928,-1.37374 z m 1.99632,-1.62982 h -1.696445 c 0.461069,-1.22789 1.328897,-2.04332 1.696445,-2.34775 z m 0,3.22208 v 2.42945 c -0.372882,-0.31713 -1.25661,-1.16759 -1.71293,-2.42945 z m -0.156713,-5.72336 c -0.404199,0.3387 -1.309024,1.20552 -1.7726,2.50128 h -1.774429 c 0.604058,-1.39803 1.954921,-2.40003 3.547029,-2.50128 z m -3.634695,2.7198 h 1.789353 c -0.131398,0.42852 -0.212783,0.89985 -0.212783,1.4113 0,0.4949 0.0763,0.95377 0.200286,1.37374 h -1.797262 c -0.14883,-0.42709 -0.23076,-0.88526 -0.23076,-1.36243 0,-0.4995 0.08874,-0.97865 0.251166,-1.42261 z m 0.06236,3.00356 h 1.784231 c 0.449052,1.30172 1.341114,2.19345 1.761291,2.55941 -1.603138,-0.11234 -2.957882,-1.138 -3.545522,-2.55941 z"
         id="path12413"
         style="fill:#ffffff;stroke:#ffffff;stroke-width:0.30899999;stroke-miterlimit:4;stroke-dasharray:none;stroke-opacity:1" />
    </g>
  </g>
</svg>
