<?xml version="1.0" encoding="UTF-8" standalone="no"?>
<!-- Created with Inkscape (http://www.inkscape.org/) -->

<svg
   xmlns:dc="http://purl.org/dc/elements/1.1/"
   xmlns:cc="http://creativecommons.org/ns#"
   xmlns:rdf="http://www.w3.org/1999/02/22-rdf-syntax-ns#"
   xmlns:svg="http://www.w3.org/2000/svg"
   xmlns="http://www.w3.org/2000/svg"
   xmlns:sodipodi="http://sodipodi.sourceforge.net/DTD/sodipodi-0.dtd"
   xmlns:inkscape="http://www.inkscape.org/namespaces/inkscape"
   width="49.999996"
   height="49.999996"
   viewBox="0 0 13.229166 13.229166"
   version="1.1"
   id="svg16055"
   sodipodi:docname="supplies_black.svg"
   inkscape:version="0.92.2pre0 650254f, 2017-08-06">
  <defs
     id="defs16049" />
  <sodipodi:namedview
     id="base"
     pagecolor="#ffffff"
     bordercolor="#666666"
     borderopacity="1.0"
     inkscape:pageopacity="0.0"
     inkscape:pageshadow="2"
     inkscape:zoom="0.49497475"
     inkscape:cx="-151.26007"
     inkscape:cy="-242.52694"
     inkscape:document-units="mm"
     inkscape:current-layer="layer1"
     showgrid="false"
     fit-margin-top="0"
     fit-margin-left="0"
     fit-margin-right="0"
     fit-margin-bottom="0"
     units="px"
     inkscape:window-width="1164"
     inkscape:window-height="862"
     inkscape:window-x="62"
     inkscape:window-y="274"
     inkscape:window-maximized="0" />
  <metadata
     id="metadata16052">
    <rdf:RDF>
      <cc:Work
         rdf:about="">
        <dc:format>image/svg+xml</dc:format>
        <dc:type
           rdf:resource="http://purl.org/dc/dcmitype/StillImage" />
        <dc:title></dc:title>
      </cc:Work>
    </rdf:RDF>
  </metadata>
  <g
     inkscape:label="Capa 1"
     inkscape:groupmode="layer"
     id="layer1"
     transform="translate(-68.224704,-158.8497)">
    <g
       style="display:inline"
       id="g10673"
       transform="translate(-179.09185,-18.397522)">
      <path
         style="stroke-width:0.11693597"
         id="path4-29"
         d="m 253.53356,181.40615 -0.0702,0.44436 c 0,0.0234 0,0.0468 0.0234,0.0585 0.0117,0.0117 0.0351,0.0117 0.0585,0 l 0.39758,-0.21049 0.39759,0.21049 c 0.0117,0 0.0117,0.0117 0.0234,0.0117 0.0117,0 0.0234,0 0.0351,-0.0117 0.0117,-0.0117 0.0234,-0.0351 0.0234,-0.0585 l -0.0702,-0.44436 0.31572,-0.31572 c 0.0117,-0.0117 0.0234,-0.0351 0.0117,-0.0585 -0.0117,-0.0234 -0.0234,-0.0351 -0.0468,-0.0351 l -0.44435,-0.0585 -0.1988,-0.39758 c -0.0234,-0.0351 -0.0819,-0.0351 -0.0935,0 l -0.19879,0.39758 -0.44435,0.0585 c -0.0234,0 -0.0351,0.0234 -0.0468,0.0351 -0.0117,0.0234 0,0.0468 0.0117,0.0585 z"
         inkscape:connector-curvature="0" />
      <path
         style="stroke:#000000;stroke-width:0.21699999;stroke-miterlimit:4;stroke-dasharray:none;stroke-opacity:1"
         id="path6-6"
         d="m 257.25212,188.30537 v -8.88713 c 0,-0.0702 -0.0468,-0.11694 -0.11693,-0.11694 h -6.4081 c -0.0702,0 -0.11693,0.0468 -0.11693,0.11694 v 8.88713 c 0,0.0702 0.0468,0.11694 0.11693,0.11694 h 6.4081 c 0.0702,0 0.11693,-0.0585 0.11693,-0.11694 z m -0.23387,-0.11693 h -6.17422 v -8.65326 h 6.17422 z"
         inkscape:connector-curvature="0" />
      <path
         style="stroke:#000000;stroke-width:0.21699999;stroke-miterlimit:4;stroke-dasharray:none;stroke-opacity:1"
         id="path8-0"
         d="m 251.69766,183.27712 h 4.47865 c 0.0702,0 0.11694,-0.0468 0.11694,-0.11694 0,-0.0702 -0.0468,-0.11694 -0.11694,-0.11694 h -4.47865 c -0.0702,0 -0.11693,0.0468 -0.11693,0.11694 0,0.0702 0.0468,0.11694 0.11693,0.11694 z"
         inkscape:connector-curvature="0" />
      <path
         style="stroke:#000000;stroke-width:0.21699999;stroke-miterlimit:4;stroke-dasharray:none;stroke-opacity:1"
         id="path10-9"
         d="m 251.69766,184.08397 h 4.47865 c 0.0702,0 0.11694,-0.0468 0.11694,-0.11693 0,-0.0702 -0.0468,-0.11694 -0.11694,-0.11694 h -4.47865 c -0.0702,0 -0.11693,0.0468 -0.11693,0.11694 0,0.0702 0.0468,0.11693 0.11693,0.11693 z"
         inkscape:connector-curvature="0" />
      <path
         style="stroke:#000000;stroke-width:0.21699999;stroke-miterlimit:4;stroke-dasharray:none;stroke-opacity:1"
         id="path12-35"
         d="m 251.69766,184.90252 h 4.47865 c 0.0702,0 0.11694,-0.0468 0.11694,-0.11693 0,-0.0702 -0.0468,-0.11694 -0.11694,-0.11694 h -4.47865 c -0.0702,0 -0.11693,0.0468 -0.11693,0.11694 0,0.0702 0.0468,0.11693 0.11693,0.11693 z"
         inkscape:connector-curvature="0" />
      <path
         style="stroke:#000000;stroke-width:0.21699999;stroke-miterlimit:4;stroke-dasharray:none;stroke-opacity:1"
         id="path14-4"
         d="m 251.69766,185.70938 h 4.47865 c 0.0702,0 0.11694,-0.0468 0.11694,-0.11693 0,-0.0702 -0.0468,-0.11694 -0.11694,-0.11694 h -4.47865 c -0.0702,0 -0.11693,0.0468 -0.11693,0.11694 0,0.0702 0.0468,0.11693 0.11693,0.11693 z"
         inkscape:connector-curvature="0" />
      <path
         style="stroke:#000000;stroke-width:0.21699999;stroke-miterlimit:4;stroke-dasharray:none;stroke-opacity:1"
         id="path16-3"
         d="m 251.69766,186.52793 h 4.47865 c 0.0702,0 0.11694,-0.0468 0.11694,-0.11693 0,-0.0702 -0.0468,-0.11694 -0.11694,-0.11694 h -4.47865 c -0.0702,0 -0.11693,0.0468 -0.11693,0.11694 0,0.0702 0.0468,0.11693 0.11693,0.11693 z"
         inkscape:connector-curvature="0" />
    </g>
  </g>
</svg>
