<?xml version="1.0" encoding="UTF-8" standalone="no"?>
<!-- Created with Inkscape (http://www.inkscape.org/) -->

<svg
   xmlns:dc="http://purl.org/dc/elements/1.1/"
   xmlns:cc="http://creativecommons.org/ns#"
   xmlns:rdf="http://www.w3.org/1999/02/22-rdf-syntax-ns#"
   xmlns:svg="http://www.w3.org/2000/svg"
   xmlns="http://www.w3.org/2000/svg"
   xmlns:sodipodi="http://sodipodi.sourceforge.net/DTD/sodipodi-0.dtd"
   xmlns:inkscape="http://www.inkscape.org/namespaces/inkscape"
   width="49.999996"
   height="49.999996"
   viewBox="0 0 13.229166 13.229166"
   version="1.1"
   id="svg16055"
   sodipodi:docname="theatre_black.svg"
   inkscape:version="0.92.2pre0 650254f, 2017-08-06">
  <defs
     id="defs16049" />
  <sodipodi:namedview
     id="base"
     pagecolor="#ffffff"
     bordercolor="#666666"
     borderopacity="1.0"
     inkscape:pageopacity="0.0"
     inkscape:pageshadow="2"
     inkscape:zoom="0.98994949"
     inkscape:cx="-187.00488"
     inkscape:cy="-65.705954"
     inkscape:document-units="mm"
     inkscape:current-layer="layer1"
     showgrid="false"
     fit-margin-top="0"
     fit-margin-left="0"
     fit-margin-right="0"
     fit-margin-bottom="0"
     units="px"
     inkscape:window-width="1164"
     inkscape:window-height="862"
     inkscape:window-x="62"
     inkscape:window-y="274"
     inkscape:window-maximized="0" />
  <metadata
     id="metadata16052">
    <rdf:RDF>
      <cc:Work
         rdf:about="">
        <dc:format>image/svg+xml</dc:format>
        <dc:type
           rdf:resource="http://purl.org/dc/dcmitype/StillImage" />
        <dc:title></dc:title>
      </cc:Work>
    </rdf:RDF>
  </metadata>
  <g
     inkscape:label="Capa 1"
     inkscape:groupmode="layer"
     id="layer1"
     transform="translate(-68.224704,-158.8497)">
    <g
       transform="matrix(0.09214618,0,0,0.09214618,70.232325,160.8577)"
       id="g848"
       style="display:inline;stroke:#000000;stroke-opacity:1">
      <path
         inkscape:connector-curvature="0"
         id="path4-5"
         d="m 18.32,56.87 a 2.5,2.5 0 0 0 2.88,-2.05 2.5342109,2.5342109 0 0 1 5,0.83 2.5,2.5 0 0 0 2.05,2.88 2.53,2.53 0 0 0 0.42,0 2.5,2.5 0 0 0 2.46,-2.08 7.5303071,7.5303071 0 1 0 -14.86,-2.45 2.5,2.5 0 0 0 2.05,2.87 z"
         style="stroke:#000000;stroke-opacity:1" />
      <path
         inkscape:connector-curvature="0"
         id="path6-7"
         d="m 45.05,51.22 a 7.52,7.52 0 0 0 -8.65,6.16 2.5,2.5 0 1 0 4.93,0.83 2.5342109,2.5342109 0 0 1 5,0.83 2.5,2.5 0 0 0 2.05,2.88 2.53,2.53 0 0 0 0.42,0 2.5,2.5 0 0 0 2.46,-2.08 7.52,7.52 0 0 0 -6.21,-8.62 z"
         style="stroke:#000000;stroke-opacity:1" />
      <path
         inkscape:connector-curvature="0"
         id="path8-8"
         d="M 32.12,66.56 A 15.65,15.65 0 0 0 16.79,73 2.5023439,2.5023439 0 0 0 20.89,75.87 10.54,10.54 0 0 1 39.69,79 2.5006499,2.5006499 0 1 0 44.5,77.63 15.64,15.64 0 0 0 32.12,66.56 Z"
         style="stroke:#000000;stroke-opacity:1" />
      <path
         inkscape:connector-curvature="0"
         id="path10-5"
         d="m 80.07,21.19 a 7.51,7.51 0 0 0 -11.35,8 2.500125,2.500125 0 0 0 4.88,-1.09 2.5109759,2.5109759 0 1 1 4.9,-1.1 2.5012197,2.5012197 0 0 0 4.88,-1.1 7.47,7.47 0 0 0 -3.31,-4.71 z"
         style="stroke:#000000;stroke-opacity:1" />
      <path
         inkscape:connector-curvature="0"
         id="path12-9"
         d="M 94.23,5 A 2.5,2.5 0 0 0 92.28,3.14 78,78 0 0 0 31,16.9 2.5,2.5 0 0 0 30,19.41 L 30.59,22 c 0.5,2.53 1,5.12 1.63,7.78 a 77.71,77.71 0 0 0 -26.07,2 2.5,2.5 0 0 0 -1.84,2 L 3.82,36.3 C 1.05,50.68 -2.39,68.58 8,85.26 a 27.65,27.65 0 0 0 18.86,12.66 27.24,27.24 0 0 0 4.51,0.38 27.75,27.75 0 0 0 17.42,-6.18 47.63,47.63 0 0 0 15,-21.67 A 27.41,27.41 0 0 0 93.3,56.66 C 102.8,39.45 98.39,21.77 94.85,7.57 Z M 45.64,88.22 A 22.49,22.49 0 0 1 12.27,82.61 C 2.89,67.61 6.12,50.77 8.73,37.25 l 0.19,-1 a 73,73 0 0 1 55,9.25 l -0.15,1 C 61.85,60.15 59.41,77.1 45.64,88.22 Z m 43.28,-34 A 22.5,22.5 0 0 1 65.26,65.64 116,116 0 0 0 68,52.17 c 0.4,0 0.8,0.05 1.2,0.05 A 15.55,15.55 0 0 0 83.49,43 2.5,2.5 0 0 0 78.92,41 10.5,10.5 0 0 1 68.78,47.23 l 0.37,-2.54 A 2.5,2.5 0 0 0 68,42.19 77.5,77.5 0 0 0 53.23,34.62 a 2.48,2.48 0 0 0 0.18,-1.6 2.5109759,2.5109759 0 0 1 4.9,-1.1 2.500125,2.500125 0 0 0 4.88,-1.09 7.51,7.51 0 0 0 -14.82,2.12 78.16,78.16 0 0 0 -10.91,-2.56 c -0.78,-3.22 -1.41,-6.36 -2,-9.41 l -0.2,-1 a 73,73 0 0 1 54.5,-12.2 l 0.25,1 c 3.32,13.35 7.46,29.97 -1.08,45.47 z"
         style="stroke:#000000;stroke-opacity:1" />
    </g>
  </g>
</svg>
