<?xml version="1.0" encoding="UTF-8" standalone="no"?>
<!-- Created with Inkscape (http://www.inkscape.org/) -->

<svg
   xmlns:dc="http://purl.org/dc/elements/1.1/"
   xmlns:cc="http://creativecommons.org/ns#"
   xmlns:rdf="http://www.w3.org/1999/02/22-rdf-syntax-ns#"
   xmlns:svg="http://www.w3.org/2000/svg"
   xmlns="http://www.w3.org/2000/svg"
   xmlns:sodipodi="http://sodipodi.sourceforge.net/DTD/sodipodi-0.dtd"
   xmlns:inkscape="http://www.inkscape.org/namespaces/inkscape"
   width="49.999996"
   height="49.999996"
   viewBox="0 0 13.229166 13.229166"
   version="1.1"
   id="svg16055"
   sodipodi:docname="transport_white.svg"
   inkscape:version="0.92.2pre0 650254f, 2017-08-06">
  <defs
     id="defs16049" />
  <sodipodi:namedview
     id="base"
     pagecolor="#ffffff"
     bordercolor="#666666"
     borderopacity="1.0"
     inkscape:pageopacity="0.0"
     inkscape:pageshadow="2"
     inkscape:zoom="0.49497475"
     inkscape:cx="-151.26007"
     inkscape:cy="-242.52694"
     inkscape:document-units="mm"
     inkscape:current-layer="layer1"
     showgrid="false"
     fit-margin-top="0"
     fit-margin-left="0"
     fit-margin-right="0"
     fit-margin-bottom="0"
     units="px"
     inkscape:window-width="1164"
     inkscape:window-height="862"
     inkscape:window-x="62"
     inkscape:window-y="274"
     inkscape:window-maximized="0" />
  <metadata
     id="metadata16052">
    <rdf:RDF>
      <cc:Work
         rdf:about="">
        <dc:format>image/svg+xml</dc:format>
        <dc:type
           rdf:resource="http://purl.org/dc/dcmitype/StillImage" />
        <dc:title></dc:title>
      </cc:Work>
    </rdf:RDF>
  </metadata>
  <g
     inkscape:label="Capa 1"
     inkscape:groupmode="layer"
     id="layer1"
     transform="translate(-68.224704,-158.8497)">
    <g
       transform="translate(-176.58901,-198.68421)"
       style="display:inline"
       id="g26038">
      <g
         style="fill:#ffffff"
         transform="matrix(0.09398872,0,0,0.09398872,246.20785,360.60466)"
         id="g13033">
        <path
           style="fill:#ffffff"
           inkscape:connector-curvature="0"
           d="M 93.142,53.33 71.14,50.49 56.631,35.981 C 56.218,35.568 55.659,35.336 55.075,35.336 H 22.609 c -0.602,0 -1.176,0.246 -1.593,0.681 L 5.608,52.158 C 5.505,52.266 5.449,52.403 5.371,52.527 5.304,52.633 5.217,52.724 5.169,52.841 5.06,53.105 5,53.388 5,53.678 V 65.6 c 0,3.843 3.128,6.971 6.971,6.971 h 1.202 c 0.722,5.091 5.066,9.033 10.354,9.033 5.289,0 9.632,-3.943 10.352,-9.035 0.004,0 0.007,0.002 0.01,0.002 h 32.109 c 0.722,5.091 5.066,9.033 10.354,9.033 5.288,0 9.631,-3.942 10.352,-9.033 h 2.119 c 3.439,0 6.238,-2.798 6.238,-6.237 V 55.512 c 0,-1.107 -0.821,-2.041 -1.919,-2.182 z M 64.801,50.376 H 47.371 V 39.738 h 6.792 z M 30.879,39.738 h 12.09 V 50.376 H 25.48 l 5.322,-10.367 c 0.045,-0.087 0.045,-0.181 0.077,-0.271 z m -7.353,37.464 c -3.364,0 -6.1,-2.735 -6.1,-6.098 0,-3.363 2.736,-6.099 6.1,-6.099 3.362,0 6.098,2.736 6.098,6.099 0,3.363 -2.736,6.098 -6.098,6.098 z m 52.826,0 c -3.364,0 -6.1,-2.735 -6.1,-6.098 0,-3.363 2.736,-6.099 6.1,-6.099 3.362,0 6.098,2.736 6.098,6.099 0,3.363 -2.736,6.098 -6.098,6.098 z M 90.659,66.334 c 0,1.011 -0.823,1.835 -1.836,1.835 h -2.44 c -1.279,-4.357 -5.266,-7.566 -10.031,-7.566 -4.765,0 -8.753,3.21 -10.033,7.566 h -32.43 c -0.111,0 -0.206,0.047 -0.312,0.063 -1.258,-4.389 -5.262,-7.629 -10.051,-7.629 -4.782,0 -8.783,3.232 -10.047,7.612 -0.078,-0.008 -0.145,-0.045 -0.225,-0.045 h -1.283 c -1.417,0 -2.569,-1.152 -2.569,-2.569 V 55.88 h 4.952 c 1.217,0 2.201,-0.986 2.201,-2.201 0,-1.216 -0.984,-2.201 -2.201,-2.201 H 12.345 L 23.55,39.738 h 2.443 l -6.076,11.834 c -0.35,0.681 -0.32,1.497 0.08,2.152 0.4,0.655 1.111,1.054 1.879,1.054 h 48.099 l 20.685,2.67 v 8.886 z"
           id="path13029" />
        <path
           style="fill:#ffffff"
           inkscape:connector-curvature="0"
           d="m 51.956,56.429 h -4.035 c -1.217,0 -2.201,0.986 -2.201,2.201 0,1.215 0.984,2.201 2.201,2.201 h 4.035 c 1.217,0 2.201,-0.986 2.201,-2.201 0,-1.215 -0.985,-2.201 -2.201,-2.201 z"
           id="path13031" />
      </g>
      <g
         style="display:inline;fill:#ffffff"
         id="g13039"
         transform="matrix(-0.72739896,0,0,0.72739896,427.20397,298.1515)">
        <path
           style="fill:#ffffff;fill-rule:evenodd;stroke-width:0.26458332"
           inkscape:connector-curvature="0"
           d="m 238.73523,87.5301 h 0.0688 l -0.0148,0.07064 c -0.008,0.03783 0.0154,0.07408 0.0524,0.08255 0.037,0.0079 0.0741,-0.01508 0.0825,-0.05292 l 0.0201,-0.100013 h 0.11536 c 0.014,0 0.0251,-0.01164 0.0251,-0.02593 v -0.143404 c 0,-0.01402 -0.0111,-0.0254 -0.0251,-0.0254 h -0.32438 c -0.0143,0 -0.0259,0.01138 -0.0259,0.0254 v 0.143404 c 0,0.01455 0.0116,0.02593 0.0259,0.02593 z"
           id="path13035" />
        <path
           style="fill:#ffffff;fill-rule:evenodd;stroke:#ffffff;stroke-width:0.12647805;stroke-miterlimit:4;stroke-dasharray:none;stroke-opacity:1"
           inkscape:connector-curvature="0"
           d="m 241.40382,86.812021 c -0.0444,0 -0.0878,0.0026 -0.13071,0.0061 l 0.0275,0.07937 c 0,0 0.0434,0.130969 0.0998,0.297127 h 0.004 c 0.62601,0 1.13374,0.507471 1.13374,1.13374 0,0.626004 -0.508,1.133475 -1.13347,1.133475 -0.62601,0 -1.13295,-0.507471 -1.13295,-1.133211 0,-0.433123 0.24342,-0.809625 0.6006,-1.000125 l 0.38894,0.907521 c -0.0143,0.02778 -0.0225,0.05927 -0.0225,0.0926 0,0.115094 0.0934,0.208492 0.20902,0.208492 0.11457,0 0.20797,-0.0934 0.20797,-0.208227 0,-0.08625 -0.0524,-0.160338 -0.127,-0.191559 L 240.9662,86.65671 c -0.0212,-0.05662 -0.0839,-0.0852 -0.14023,-0.06562 l -0.31009,-0.723107 0.37835,-0.119591 c 0.0384,-0.01217 0.0669,-0.04022 0.081,-0.07461 l 0.0958,-0.184679 c 0.0775,-0.02275 0.13494,-0.09419 0.13494,-0.179388 5.3e-4,-0.103716 -0.0833,-0.187854 -0.18706,-0.188647 -0.10398,0 -0.18786,0.08361 -0.18865,0.187325 0,0.02275 0.004,0.04418 0.0111,0.06456 l -0.0767,0.146844 -0.45508,0.143933 c -0.0185,0.0058 -0.0357,0.01587 -0.049,0.0291 -0.0325,0.0291 -0.0476,0.07408 -0.0384,0.117475 7.9e-4,0.0048 0.002,0.0098 0.004,0.01482 0.003,0.0079 0.005,0.01587 0.01,0.02302 l 0.0733,0.170391 -1.99231,0.619654 -0.0228,-0.06959 c -0.005,-0.01508 -0.0196,-0.02646 -0.0365,-0.02646 -0.003,0 -0.007,0.0011 -0.01,0.0019 l -0.0185,0.0058 -0.21008,-0.574675 0.62707,-0.195792 c 0.004,-0.01111 0.005,-0.02434 0.005,-0.03889 0,-0.05503 -0.0299,-0.101864 -0.0701,-0.114829 -0.0265,-0.0079 -0.0569,-0.01217 -0.0892,-0.01217 -0.15611,0 -0.37703,0.01429 -0.65035,0.02302 -0.16298,0.0053 -0.41698,-0.01323 -0.58843,-0.02725 -0.003,-5.29e-4 -0.006,-5.29e-4 -0.009,-5.29e-4 -0.0646,0 -0.11694,0.0672 -0.11694,0.149225 0,0.05768 0.0257,0.107685 0.063,0.132291 l 0.22886,0.166688 c 0.008,0.0071 0.20558,0.1397 0.41222,0.02117 l 0.19632,0.534988 -0.006,0.0021 c -0.0159,0.0048 -0.027,0.01931 -0.027,0.03704 0,0.0042 7.9e-4,0.0085 0.003,0.01244 l 0.045,0.137583 -1.31683,1.319212 c -0.009,-0.0013 -0.019,-0.0026 -0.0286,-0.0026 -0.11535,0 -0.20849,0.0934 -0.20849,0.208491 0,0.114829 0.0937,0.208227 0.20849,0.208227 0.0677,0 0.12806,-0.03254 0.16616,-0.08308 h 0.96044 c -0.0624,0.567531 -0.54292,1.008592 -1.1266,1.008592 -0.626,0 -1.13347,-0.507206 -1.13347,-1.133211 0,-0.626533 0.50747,-1.133739 1.13347,-1.133739 0.17463,0 0.34026,0.03969 0.4879,0.110331 l 0.28178,-0.28231 c -0.22543,-0.133086 -0.48842,-0.210079 -0.76888,-0.210079 -0.83741,0 -1.51606,0.678656 -1.51606,1.516062 0,0.836877 0.67865,1.515269 1.51606,1.515269 0.79428,0 1.44648,-0.611717 1.50998,-1.390386 h 0.14816 c 0.0344,0.0979 0.10901,0.177271 0.2032,0.219605 l -0.0942,0.452437 h -0.10583 c -0.0138,0 -0.0254,0.01138 -0.0254,0.02593 v 0.143404 c 0,0.01402 0.0116,0.02567 0.0257,0.02567 h 0.32491 c 0.0143,0 0.0254,-0.01191 0.0254,-0.0254 v -0.143669 c 0,-0.01402 -0.0111,-0.02566 -0.0251,-0.02566 h -0.0699 l 0.0873,-0.421746 h 0.008 c 0.2077,0 0.37571,-0.168011 0.37571,-0.375179 0,-0.05292 -0.0114,-0.103717 -0.0312,-0.149755 l 1.47849,-1.639093 0.1868,0.436562 c -0.49318,0.250032 -0.83132,0.761471 -0.83132,1.35255 0,0.837142 0.67839,1.515534 1.51553,1.515534 0.83661,0 1.51554,-0.678392 1.51554,-1.515534 5.2e-4,-0.837935 -0.67787,-1.516062 -1.51527,-1.516062 z m -3.048,1.39065 h -1.35626 l 0.58209,-0.583936 c 0.0799,0.09895 0.14287,0.212196 0.186,0.334963 h 0.39899 c -0.0582,-0.226748 -0.16669,-0.433388 -0.3138,-0.60669 l 0.27782,-0.278606 0.32332,0.983721 c -0.0442,0.04154 -0.0783,0.0926 -0.0987,0.150283 z m 0.46884,-0.232305 c -0.0233,-0.0079 -0.0482,-0.01323 -0.0741,-0.01587 l -0.33497,-1.019439 1.89389,-0.590021 z"
           id="path13037" />
      </g>
    </g>
  </g>
</svg>
